date,reg,cas_confirmes,deces,deces_ehpad,reanimation,hospitalises,gueris,depistes,diff,elapsed_days
2020-01-24,FR-ARA,,,,,,,,,
2020-01-24,FR-PDL,,,,,,,,,
2020-01-24,FR-PAC,,,,,,,,,
2020-01-24,FR-OCC,,,,,,,,,
2020-01-24,FR-NAQ,1.0,,,,1.0,,,0.0,0.0
2020-01-24,FR-IDF,2.0,,,,2.0,,,0.0,0.0
2020-01-24,FR-NOR,2.0,,,,2.0,,,0.0,0.0
2020-01-24,FR-GES,2.0,,,,2.0,,,0.0,0.0
2020-01-24,FR-CVL,2.0,,,,2.0,,,0.0,0.0
2020-01-24,FR-COR,2.0,,,,2.0,,,0.0,0.0
2020-01-24,FR-BRE,2.0,,,,2.0,,,0.0,0.0
2020-01-24,FR-BFC,2.0,,,,2.0,,,0.0,0.0
2020-01-24,FR-HDF,2.0,,,,2.0,,,0.0,0.0
2020-01-25,FR-NAQ,1.0,,,,1.0,,,1.0,1.0
2020-01-25,FR-PDL,1.0,,,,1.0,,,1.0,1.0
2020-01-25,FR-PAC,1.0,,,,1.0,,,1.0,1.0
2020-01-25,FR-OCC,1.0,,,,1.0,,,1.0,1.0
2020-01-25,FR-NOR,1.0,,,,1.0,,,1.0,1.0
2020-01-25,FR-IDF,2.0,,,,2.0,,,1.0,1.0
2020-01-25,FR-BRE,2.0,,,,2.0,,,1.0,1.0
2020-01-25,FR-GES,2.0,,,,2.0,,,1.0,1.0
2020-01-25,FR-CVL,2.0,,,,2.0,,,1.0,1.0
2020-01-25,FR-COR,2.0,,,,2.0,,,1.0,1.0
2020-01-25,FR-BFC,2.0,,,,2.0,,,1.0,1.0
2020-01-25,FR-ARA,2.0,,,,2.0,,,1.0,1.0
2020-01-25,FR-HDF,2.0,,,,2.0,,,1.0,1.0
2020-01-26,FR-IDF,2.0,,,,2.0,,,1.0,2.0
2020-01-26,FR-PDL,2.0,,,,2.0,,,1.0,2.0
2020-01-26,FR-PAC,2.0,,,,2.0,,,1.0,2.0
2020-01-26,FR-OCC,2.0,,,,2.0,,,1.0,2.0
2020-01-26,FR-NAQ,1.0,,,,1.0,,,1.0,2.0
2020-01-26,FR-HDF,1.0,,,,1.0,,,1.0,2.0
2020-01-26,FR-NOR,1.0,,,,1.0,,,1.0,2.0
2020-01-26,FR-CVL,1.0,,,,1.0,,,1.0,2.0
2020-01-26,FR-COR,1.0,,,,1.0,,,1.0,2.0
2020-01-26,FR-GES,1.0,,,,1.0,,,1.0,2.0
2020-01-26,FR-BRE,1.0,,,,1.0,,,1.0,2.0
2020-01-26,FR-BFC,1.0,,,,1.0,,,1.0,2.0
2020-01-26,FR-ARA,1.0,,,,1.0,,,1.0,2.0
2020-01-27,FR-PAC,1.0,,,,1.0,,,1.0,2.0
2020-01-27,FR-OCC,1.0,,,,1.0,,,1.0,2.0
2020-01-27,FR-NOR,1.0,,,,1.0,,,1.0,2.0
2020-01-27,FR-NAQ,1.0,,,,1.0,,,1.0,3.0
2020-01-27,FR-IDF,2.0,,,,2.0,,,1.0,3.0
2020-01-27,FR-HDF,2.0,,,,2.0,,,1.0,3.0
2020-01-27,FR-PDL,2.0,,,,2.0,,,1.0,3.0
2020-01-27,FR-CVL,2.0,,,,2.0,,,1.0,3.0
2020-01-27,FR-COR,2.0,,,,2.0,,,1.0,3.0
2020-01-27,FR-BRE,2.0,,,,2.0,,,1.0,3.0
2020-01-27,FR-BFC,2.0,,,,2.0,,,1.0,3.0
2020-01-27,FR-ARA,2.0,,,,2.0,,,1.0,3.0
2020-01-27,FR-GES,2.0,,,,2.0,,,1.0,3.0
2020-01-28,FR-PDL,2.0,,,,2.0,,,1.0,3.0
2020-01-28,FR-PAC,2.0,,,,2.0,,,1.0,3.0
2020-01-28,FR-OCC,2.0,,,,2.0,,,1.0,3.0
2020-01-28,FR-NOR,2.0,,,,2.0,,,1.0,3.0
2020-01-28,FR-NAQ,1.0,,,,1.0,,,1.0,4.0
2020-01-28,FR-IDF,3.0,,,,3.0,,,1.0,4.0
2020-01-28,FR-HDF,3.0,,,,3.0,,,1.0,4.0
2020-01-28,FR-CVL,3.0,,,,3.0,,,1.0,4.0
2020-01-28,FR-COR,3.0,,,,3.0,,,1.0,4.0
2020-01-28,FR-BRE,3.0,,,,3.0,,,1.0,4.0
2020-01-28,FR-BFC,3.0,,,,3.0,,,1.0,4.0
2020-01-28,FR-ARA,3.0,,,,3.0,,,1.0,4.0
2020-01-28,FR-GES,3.0,,,,3.0,,,1.0,4.0
2020-01-29,FR-IDF,4.0,,,,4.0,,,1.0,5.0
2020-01-29,FR-PDL,4.0,,,,4.0,,,1.0,5.0
2020-01-29,FR-PAC,4.0,,,,4.0,,,1.0,5.0
2020-01-29,FR-OCC,4.0,,,,4.0,,,1.0,5.0
2020-01-29,FR-NAQ,1.0,,,,1.0,,,1.0,5.0
2020-01-29,FR-HDF,1.0,,,,1.0,,,1.0,5.0
2020-01-29,FR-NOR,1.0,,,,1.0,,,1.0,5.0
2020-01-29,FR-CVL,1.0,,,,1.0,,,1.0,5.0
2020-01-29,FR-ARA,1.0,,,,1.0,,,1.0,5.0
2020-01-29,FR-BFC,1.0,,,,1.0,,,1.0,5.0
2020-01-29,FR-GES,1.0,,,,1.0,,,1.0,5.0
2020-01-29,FR-COR,1.0,,,,1.0,,,1.0,5.0
2020-01-29,FR-BRE,1.0,,,,1.0,,,1.0,5.0
2020-01-30,FR-PDL,1.0,,,,1.0,,,1.0,5.0
2020-01-30,FR-PAC,1.0,,,,1.0,,,1.0,5.0
2020-01-30,FR-OCC,1.0,,,,1.0,,,1.0,5.0
2020-01-30,FR-NOR,1.0,,,,1.0,,,1.0,5.0
2020-01-30,FR-IDF,5.0,,,,5.0,,,1.0,6.0
2020-01-30,FR-HDF,5.0,,,,5.0,,,1.0,6.0
2020-01-30,FR-NAQ,1.0,,,,1.0,,,1.0,6.0
2020-01-30,FR-CVL,1.0,,,,1.0,,,1.0,6.0
2020-01-30,FR-COR,1.0,,,,1.0,,,1.0,6.0
2020-01-30,FR-BRE,1.0,,,,1.0,,,1.0,6.0
2020-01-30,FR-BFC,1.0,,,,1.0,,,1.0,6.0
2020-01-30,FR-ARA,1.0,,,,1.0,,,1.0,6.0
2020-01-30,FR-GES,1.0,,,,1.0,,,1.0,6.0
2020-01-31,FR-NAQ,1.0,,,,1.0,,,1.0,7.0
2020-01-31,FR-PDL,1.0,,,,1.0,,,1.0,7.0
2020-01-31,FR-PAC,1.0,,,,1.0,,,1.0,7.0
2020-01-31,FR-OCC,1.0,,,,1.0,,,1.0,7.0
2020-01-31,FR-NOR,1.0,,,,1.0,,,1.0,7.0
2020-01-31,FR-IDF,5.0,,,,5.0,,,1.0,7.0
2020-01-31,FR-BFC,5.0,,,,5.0,,,1.0,7.0
2020-01-31,FR-GES,5.0,,,,5.0,,,1.0,7.0
2020-01-31,FR-CVL,5.0,,,,5.0,,,1.0,7.0
2020-01-31,FR-COR,5.0,,,,5.0,,,1.0,7.0
2020-01-31,FR-BRE,5.0,,,,5.0,,,1.0,7.0
2020-01-31,FR-ARA,5.0,,,,5.0,,,1.0,7.0
2020-01-31,FR-HDF,5.0,,,,5.0,,,1.0,7.0
2020-02-01,FR-IDF,5.0,,,,5.0,,,1.0,7.0
2020-02-01,FR-PAC,5.0,,,,5.0,,,1.0,7.0
2020-02-01,FR-OCC,5.0,,,,5.0,,,1.0,7.0
2020-02-01,FR-NOR,5.0,,,,5.0,,,1.0,7.0
2020-02-01,FR-NAQ,5.0,,,,5.0,,,1.0,7.0
2020-02-01,FR-PDL,5.0,,,,5.0,,,1.0,7.0
2020-02-01,FR-HDF,5.0,,,,5.0,,,1.0,7.0
2020-02-01,FR-CVL,5.0,,,,5.0,,,1.0,7.0
2020-02-01,FR-COR,5.0,,,,5.0,,,1.0,7.0
2020-02-01,FR-BRE,5.0,,,,5.0,,,1.0,7.0
2020-02-01,FR-BFC,5.0,,,,5.0,,,1.0,7.0
2020-02-01,FR-ARA,5.0,,,,5.0,,,1.0,7.0
2020-02-01,FR-GES,5.0,,,,5.0,,,1.0,7.0
2020-02-02,FR-PAC,5.0,,,,5.0,,,1.0,7.0
2020-02-02,FR-OCC,5.0,,,,5.0,,,1.0,7.0
2020-02-02,FR-NOR,5.0,,,,5.0,,,1.0,7.0
2020-02-02,FR-NAQ,5.0,,,,5.0,,,1.0,7.0
2020-02-02,FR-IDF,5.0,,,,5.0,,,1.0,7.0
2020-02-02,FR-HDF,5.0,,,,5.0,,,1.0,7.0
2020-02-02,FR-PDL,5.0,,,,5.0,,,1.0,7.0
2020-02-02,FR-CVL,5.0,,,,5.0,,,1.0,7.0
2020-02-02,FR-COR,5.0,,,,5.0,,,1.0,7.0
2020-02-02,FR-BRE,5.0,,,,5.0,,,1.0,7.0
2020-02-02,FR-BFC,5.0,,,,5.0,,,1.0,7.0
2020-02-02,FR-ARA,5.0,,,,5.0,,,1.0,7.0
2020-02-02,FR-GES,5.0,,,,5.0,,,1.0,7.0
2020-02-03,FR-PDL,5.0,,,,5.0,,,1.0,7.0
2020-02-03,FR-PAC,5.0,,,,5.0,,,1.0,7.0
2020-02-03,FR-OCC,5.0,,,,5.0,,,1.0,7.0
2020-02-03,FR-NOR,5.0,,,,5.0,,,1.0,7.0
2020-02-03,FR-NAQ,1.0,,,,1.0,,,3.0,10.0
2020-02-03,FR-IDF,5.0,,,,5.0,,,3.0,10.0
2020-02-03,FR-HDF,5.0,,,,5.0,,,3.0,10.0
2020-02-03,FR-CVL,5.0,,,,5.0,,,3.0,10.0
2020-02-03,FR-COR,5.0,,,,5.0,,,3.0,10.0
2020-02-03,FR-BRE,5.0,,,,5.0,,,3.0,10.0
2020-02-03,FR-BFC,5.0,,,,5.0,,,3.0,10.0
2020-02-03,FR-ARA,5.0,,,,5.0,,,3.0,10.0
2020-02-03,FR-GES,5.0,,,,5.0,,,3.0,10.0
2020-02-04,FR-IDF,5.0,,,,5.0,,,3.0,10.0
2020-02-04,FR-PDL,5.0,,,,5.0,,,3.0,10.0
2020-02-04,FR-PAC,5.0,,,,5.0,,,3.0,10.0
2020-02-04,FR-OCC,5.0,,,,5.0,,,3.0,10.0
2020-02-04,FR-NAQ,5.0,,,,5.0,,,3.0,10.0
2020-02-04,FR-HDF,5.0,,,,5.0,,,3.0,10.0
2020-02-04,FR-NOR,5.0,,,,5.0,,,3.0,10.0
2020-02-04,FR-CVL,5.0,,,,5.0,,,3.0,10.0
2020-02-04,FR-ARA,5.0,,,,5.0,,,3.0,10.0
2020-02-04,FR-BFC,5.0,,,,5.0,,,3.0,10.0
2020-02-04,FR-GES,5.0,,,,5.0,,,3.0,10.0
2020-02-04,FR-COR,5.0,,,,5.0,,,3.0,10.0
2020-02-04,FR-BRE,5.0,,,,5.0,,,3.0,10.0
2020-02-05,FR-PDL,5.0,,,,5.0,,,3.0,10.0
2020-02-05,FR-PAC,5.0,,,,5.0,,,3.0,10.0
2020-02-05,FR-OCC,5.0,,,,5.0,,,3.0,10.0
2020-02-05,FR-NOR,5.0,,,,5.0,,,3.0,10.0
2020-02-05,FR-IDF,5.0,,,,5.0,,,2.0,12.0
2020-02-05,FR-HDF,5.0,,,,5.0,,,2.0,12.0
2020-02-05,FR-NAQ,1.0,,,,1.0,,,2.0,12.0
2020-02-05,FR-CVL,1.0,,,,1.0,,,2.0,12.0
2020-02-05,FR-COR,1.0,,,,1.0,,,2.0,12.0
2020-02-05,FR-BRE,1.0,,,,1.0,,,2.0,12.0
2020-02-05,FR-BFC,1.0,,,,1.0,,,2.0,12.0
2020-02-05,FR-ARA,1.0,,,,1.0,,,2.0,12.0
2020-02-05,FR-GES,1.0,,,,1.0,,,2.0,12.0
2020-02-06,FR-NAQ,1.0,,,,1.0,,,1.0,13.0
2020-02-06,FR-PDL,1.0,,,,1.0,,,1.0,13.0
2020-02-06,FR-PAC,1.0,,,,1.0,,,1.0,13.0
2020-02-06,FR-OCC,1.0,,,,1.0,,,1.0,13.0
2020-02-06,FR-NOR,1.0,,,,1.0,,,1.0,13.0
2020-02-06,FR-IDF,5.0,,,,5.0,,,1.0,13.0
2020-02-06,FR-BFC,5.0,,,,5.0,,,1.0,13.0
2020-02-06,FR-GES,5.0,,,,5.0,,,1.0,13.0
2020-02-06,FR-CVL,5.0,,,,5.0,,,1.0,13.0
2020-02-06,FR-COR,5.0,,,,5.0,,,1.0,13.0
2020-02-06,FR-BRE,5.0,,,,5.0,,,1.0,13.0
2020-02-06,FR-ARA,5.0,,,,5.0,,,1.0,13.0
2020-02-06,FR-HDF,5.0,,,,5.0,,,1.0,13.0
2020-02-07,FR-NOR,5.0,,,,5.0,,,1.0,13.0
2020-02-07,FR-OCC,5.0,,,,5.0,,,1.0,13.0
2020-02-07,FR-NAQ,1.0,,,,1.0,,,1.0,14.0
2020-02-07,FR-PDL,1.0,,,,1.0,,,1.0,14.0
2020-02-07,FR-PAC,1.0,,,,1.0,,,1.0,14.0
2020-02-07,FR-IDF,5.0,,,,5.0,,,1.0,14.0
2020-02-07,FR-HDF,5.0,,,,5.0,,,1.0,14.0
2020-02-07,FR-GES,5.0,,,,5.0,,,1.0,14.0
2020-02-07,FR-CVL,5.0,,,,5.0,,,1.0,14.0
2020-02-07,FR-COR,5.0,,,,5.0,,,1.0,14.0
2020-02-07,FR-BRE,5.0,,,,5.0,,,1.0,14.0
2020-02-07,FR-BFC,5.0,,,,5.0,,,1.0,14.0
2020-02-07,FR-ARA,5.0,0.0,,,5.0,,,0.0,0.0
2020-02-08,FR-PAC,5.0,0.0,,,5.0,,,0.0,0.0
2020-02-08,FR-OCC,5.0,0.0,,,5.0,,,0.0,0.0
2020-02-08,FR-NOR,5.0,0.0,,,5.0,,,0.0,0.0
2020-02-08,FR-NAQ,1.0,0.0,,,1.0,,,1.0,15.0
2020-02-08,FR-IDF,5.0,0.0,,,5.0,,,1.0,15.0
2020-02-08,FR-HDF,5.0,0.0,,,5.0,,,1.0,15.0
2020-02-08,FR-PDL,5.0,0.0,,,5.0,,,1.0,15.0
2020-02-08,FR-CVL,5.0,0.0,,,5.0,,,1.0,15.0
2020-02-08,FR-COR,5.0,0.0,,,5.0,,,1.0,15.0
2020-02-08,FR-BRE,5.0,0.0,,,5.0,,,1.0,15.0
2020-02-08,FR-BFC,5.0,0.0,,,5.0,,,1.0,15.0
2020-02-08,FR-ARA,5.0,0.0,,,5.0,,,1.0,1.0
2020-02-08,FR-GES,5.0,0.0,,,5.0,,,1.0,1.0
2020-02-09,FR-PDL,5.0,0.0,,,5.0,,,1.0,1.0
2020-02-09,FR-PAC,5.0,0.0,,,5.0,,,1.0,1.0
2020-02-09,FR-OCC,5.0,0.0,,,5.0,,,1.0,1.0
2020-02-09,FR-NOR,5.0,0.0,,,5.0,,,1.0,1.0
2020-02-09,FR-NAQ,5.0,0.0,,,5.0,,,1.0,1.0
2020-02-09,FR-IDF,5.0,0.0,,,5.0,,,1.0,1.0
2020-02-09,FR-HDF,5.0,0.0,,,5.0,,,1.0,1.0
2020-02-09,FR-CVL,5.0,0.0,,,5.0,,,1.0,1.0
2020-02-09,FR-COR,5.0,0.0,,,5.0,,,1.0,1.0
2020-02-09,FR-BRE,5.0,0.0,,,5.0,,,1.0,1.0
2020-02-09,FR-BFC,5.0,0.0,,,5.0,,,1.0,1.0
2020-02-09,FR-ARA,5.0,0.0,,,5.0,,,1.0,1.0
2020-02-09,FR-GES,5.0,0.0,,,5.0,,,1.0,1.0
2020-02-10,FR-IDF,5.0,0.0,,,5.0,,,2.0,17.0
2020-02-10,FR-PAC,5.0,0.0,,,5.0,,,2.0,17.0
2020-02-10,FR-OCC,5.0,0.0,,,5.0,,,2.0,17.0
2020-02-10,FR-NOR,5.0,0.0,,,5.0,,,2.0,17.0
2020-02-10,FR-NAQ,1.0,0.0,,,1.0,,,2.0,17.0
2020-02-10,FR-PDL,1.0,0.0,,,1.0,,,2.0,17.0
2020-02-10,FR-HDF,1.0,0.0,,,1.0,,,2.0,17.0
2020-02-10,FR-CVL,1.0,0.0,,,1.0,,,2.0,17.0
2020-02-10,FR-ARA,5.0,0.0,,,5.0,,,2.0,3.0
2020-02-10,FR-BFC,5.0,0.0,,,5.0,,,2.0,3.0
2020-02-10,FR-GES,5.0,0.0,,,5.0,,,2.0,3.0
2020-02-10,FR-COR,5.0,0.0,,,5.0,,,2.0,3.0
2020-02-10,FR-BRE,5.0,0.0,,,5.0,,,2.0,3.0
2020-02-11,FR-PAC,5.0,0.0,,,5.0,,,2.0,3.0
2020-02-11,FR-OCC,5.0,0.0,,,5.0,,,2.0,3.0
2020-02-11,FR-NOR,5.0,0.0,,,5.0,,,2.0,3.0
2020-02-11,FR-NAQ,1.0,0.0,,,1.0,,,1.0,18.0
2020-02-11,FR-IDF,5.0,0.0,,,5.0,,,1.0,18.0
2020-02-11,FR-HDF,5.0,0.0,,,5.0,,,1.0,18.0
2020-02-11,FR-PDL,5.0,0.0,,,5.0,,,1.0,18.0
2020-02-11,FR-CVL,5.0,0.0,,,5.0,,,1.0,18.0
2020-02-11,FR-COR,5.0,0.0,,,5.0,,,1.0,18.0
2020-02-11,FR-BRE,5.0,0.0,,,5.0,,,1.0,18.0
2020-02-11,FR-BFC,5.0,0.0,,,5.0,,,1.0,18.0
2020-02-11,FR-ARA,5.0,0.0,,,5.0,,,1.0,4.0
2020-02-11,FR-GES,5.0,0.0,,,5.0,,,1.0,4.0
2020-02-12,FR-PDL,5.0,0.0,,,5.0,,,1.0,4.0
2020-02-12,FR-PAC,5.0,0.0,,,5.0,,,1.0,4.0
2020-02-12,FR-OCC,5.0,0.0,,,5.0,,,1.0,4.0
2020-02-12,FR-NOR,5.0,0.0,,,5.0,,,1.0,4.0
2020-02-12,FR-NAQ,1.0,0.0,,,1.0,,,1.0,19.0
2020-02-12,FR-IDF,5.0,0.0,,,5.0,,,1.0,19.0
2020-02-12,FR-HDF,5.0,0.0,,,5.0,,,1.0,19.0
2020-02-12,FR-CVL,5.0,0.0,,,5.0,,,1.0,19.0
2020-02-12,FR-COR,5.0,0.0,,,5.0,,,1.0,19.0
2020-02-12,FR-BRE,5.0,0.0,,,5.0,,,1.0,19.0
2020-02-12,FR-ARA,5.0,0.0,,,5.0,,,1.0,5.0
2020-02-12,FR-GES,5.0,0.0,,,5.0,,,1.0,5.0
2020-02-12,FR-BFC,5.0,0.0,,,5.0,,,1.0,5.0
2020-02-13,FR-PDL,5.0,0.0,,,5.0,,,1.0,5.0
2020-02-13,FR-IDF,5.0,0.0,,,5.0,,,1.0,5.0
2020-02-13,FR-PAC,5.0,0.0,,,5.0,,,1.0,5.0
2020-02-13,FR-OCC,5.0,0.0,,,5.0,,,1.0,5.0
2020-02-13,FR-NOR,5.0,0.0,,,5.0,,,1.0,5.0
2020-02-13,FR-NAQ,5.0,0.0,,,5.0,,,1.0,5.0
2020-02-13,FR-HDF,5.0,0.0,,,5.0,,,1.0,5.0
2020-02-13,FR-CVL,5.0,0.0,,,5.0,,,1.0,5.0
2020-02-13,FR-COR,5.0,0.0,,,5.0,,,1.0,5.0
2020-02-13,FR-BRE,5.0,0.0,,,5.0,,,1.0,5.0
2020-02-13,FR-BFC,5.0,0.0,,,5.0,,,1.0,5.0
2020-02-13,FR-ARA,5.0,0.0,,,5.0,,,1.0,5.0
2020-02-13,FR-GES,5.0,0.0,,,5.0,,,1.0,5.0
2020-02-14,FR-PAC,5.0,0.0,,,5.0,,,1.0,5.0
2020-02-14,FR-OCC,5.0,0.0,,,5.0,,,1.0,5.0
2020-02-14,FR-NOR,5.0,0.0,,,5.0,,,1.0,5.0
2020-02-14,FR-NAQ,5.0,0.0,,,5.0,,,1.0,5.0
2020-02-14,FR-IDF,5.0,0.0,,,5.0,,,1.0,5.0
2020-02-14,FR-HDF,5.0,0.0,,,5.0,,,1.0,5.0
2020-02-14,FR-PDL,5.0,0.0,,,5.0,,,1.0,5.0
2020-02-14,FR-CVL,5.0,0.0,,,5.0,,,1.0,5.0
2020-02-14,FR-COR,5.0,0.0,,,5.0,,,1.0,5.0
2020-02-14,FR-BRE,5.0,0.0,,,5.0,,,1.0,5.0
2020-02-14,FR-BFC,5.0,0.0,,,5.0,,,1.0,5.0
2020-02-14,FR-ARA,5.0,0.0,,,5.0,,,1.0,5.0
2020-02-14,FR-GES,5.0,0.0,,,5.0,,,1.0,5.0
2020-02-15,FR-PDL,5.0,0.0,,,5.0,,,1.0,5.0
2020-02-15,FR-PAC,5.0,0.0,,,5.0,,,1.0,5.0
2020-02-15,FR-OCC,5.0,0.0,,,5.0,,,1.0,5.0
2020-02-15,FR-NOR,5.0,0.0,,,5.0,,,1.0,5.0
2020-02-15,FR-NAQ,5.0,0.0,,,5.0,,,1.0,5.0
2020-02-15,FR-IDF,5.0,0.0,,,5.0,,,1.0,5.0
2020-02-15,FR-HDF,5.0,0.0,,,5.0,,,1.0,5.0
2020-02-15,FR-CVL,5.0,0.0,,,5.0,,,1.0,5.0
2020-02-15,FR-COR,5.0,0.0,,,5.0,,,1.0,5.0
2020-02-15,FR-BRE,5.0,0.0,,,5.0,,,1.0,5.0
2020-02-15,FR-BFC,5.0,0.0,,,5.0,,,1.0,5.0
2020-02-15,FR-ARA,5.0,0.0,,,5.0,,,1.0,5.0
2020-02-15,FR-GES,5.0,0.0,,,5.0,,,1.0,5.0
2020-02-16,FR-NAQ,5.0,0.0,,,5.0,,,1.0,5.0
2020-02-16,FR-PDL,5.0,0.0,,,5.0,,,1.0,5.0
2020-02-16,FR-PAC,5.0,0.0,,,5.0,,,1.0,5.0
2020-02-16,FR-OCC,5.0,0.0,,,5.0,,,1.0,5.0
2020-02-16,FR-NOR,5.0,0.0,,,5.0,,,1.0,5.0
2020-02-16,FR-IDF,5.0,0.0,,,5.0,,,1.0,5.0
2020-02-16,FR-BRE,5.0,0.0,,,5.0,,,1.0,5.0
2020-02-16,FR-GES,5.0,0.0,,,5.0,,,1.0,5.0
2020-02-16,FR-CVL,5.0,0.0,,,5.0,,,1.0,5.0
2020-02-16,FR-COR,5.0,0.0,,,5.0,,,1.0,5.0
2020-02-16,FR-HDF,5.0,0.0,,,5.0,,,1.0,5.0
2020-02-16,FR-BFC,5.0,0.0,,,5.0,,,1.0,5.0
2020-02-16,FR-ARA,5.0,0.0,,,5.0,,,1.0,5.0
2020-02-17,FR-PDL,5.0,0.0,,,5.0,,,1.0,5.0
2020-02-17,FR-PAC,5.0,0.0,,,5.0,,,1.0,5.0
2020-02-17,FR-OCC,5.0,0.0,,,5.0,,,1.0,5.0
2020-02-17,FR-NOR,5.0,0.0,,,5.0,,,1.0,5.0
2020-02-17,FR-NAQ,5.0,0.0,,,5.0,,,1.0,5.0
2020-02-17,FR-IDF,5.0,0.0,,,5.0,,,1.0,5.0
2020-02-17,FR-HDF,5.0,0.0,,,5.0,,,1.0,5.0
2020-02-17,FR-GES,5.0,0.0,,,5.0,,,1.0,5.0
2020-02-17,FR-CVL,5.0,0.0,,,5.0,,,1.0,5.0
2020-02-17,FR-COR,5.0,0.0,,,5.0,,,1.0,5.0
2020-02-17,FR-BRE,5.0,0.0,,,5.0,,,1.0,5.0
2020-02-17,FR-BFC,5.0,0.0,,,5.0,,,1.0,5.0
2020-02-17,FR-ARA,5.0,0.0,,,5.0,,,1.0,5.0
2020-02-18,FR-PAC,5.0,0.0,,,5.0,,,1.0,5.0
2020-02-18,FR-OCC,5.0,0.0,,,5.0,,,1.0,5.0
2020-02-18,FR-NOR,5.0,0.0,,,5.0,,,1.0,5.0
2020-02-18,FR-NAQ,5.0,0.0,,,5.0,,,1.0,5.0
2020-02-18,FR-IDF,5.0,0.0,,,5.0,,,1.0,5.0
2020-02-18,FR-HDF,5.0,0.0,,,5.0,,,1.0,5.0
2020-02-18,FR-PDL,5.0,0.0,,,5.0,,,1.0,5.0
2020-02-18,FR-CVL,5.0,0.0,,,5.0,,,1.0,5.0
2020-02-18,FR-COR,5.0,0.0,,,5.0,,,1.0,5.0
2020-02-18,FR-BRE,5.0,0.0,,,5.0,,,1.0,5.0
2020-02-18,FR-BFC,5.0,0.0,,,5.0,,,1.0,5.0
2020-02-18,FR-ARA,5.0,0.0,,,5.0,,,1.0,5.0
2020-02-18,FR-GES,5.0,0.0,,,5.0,,,1.0,5.0
2020-02-19,FR-PAC,5.0,0.0,,,5.0,,,1.0,5.0
2020-02-19,FR-OCC,5.0,0.0,,,5.0,,,1.0,5.0
2020-02-19,FR-NOR,5.0,0.0,,,5.0,,,1.0,5.0
2020-02-19,FR-NAQ,5.0,0.0,,,5.0,,,1.0,5.0
2020-02-19,FR-IDF,5.0,0.0,,,5.0,,,1.0,5.0
2020-02-19,FR-HDF,5.0,0.0,,,5.0,,,1.0,5.0
2020-02-19,FR-PDL,5.0,0.0,,,5.0,,,1.0,5.0
2020-02-19,FR-CVL,5.0,0.0,,,5.0,,,1.0,5.0
2020-02-19,FR-COR,5.0,0.0,,,5.0,,,1.0,5.0
2020-02-19,FR-BRE,5.0,0.0,,,5.0,,,1.0,5.0
2020-02-19,FR-BFC,5.0,0.0,,,5.0,,,1.0,5.0
2020-02-19,FR-ARA,5.0,0.0,,,5.0,,,1.0,5.0
2020-02-19,FR-GES,5.0,0.0,,,5.0,,,1.0,5.0
2020-02-20,FR-PDL,5.0,0.0,,,5.0,,,1.0,5.0
2020-02-20,FR-PAC,5.0,0.0,,,5.0,,,1.0,5.0
2020-02-20,FR-OCC,5.0,0.0,,,5.0,,,1.0,5.0
2020-02-20,FR-NOR,5.0,0.0,,,5.0,,,1.0,5.0
2020-02-20,FR-NAQ,1.0,0.0,,,1.0,,,8.0,27.0
2020-02-20,FR-IDF,5.0,0.0,,,4.0,,,8.0,27.0
2020-02-20,FR-HDF,5.0,0.0,,,4.0,,,8.0,27.0
2020-02-20,FR-CVL,5.0,0.0,,,4.0,,,8.0,27.0
2020-02-20,FR-COR,5.0,0.0,,,4.0,,,8.0,27.0
2020-02-20,FR-BRE,5.0,0.0,,,4.0,,,8.0,27.0
2020-02-20,FR-BFC,5.0,0.0,,,4.0,,,8.0,27.0
2020-02-20,FR-ARA,6.0,0.0,,,6.0,,,8.0,13.0
2020-02-20,FR-GES,6.0,0.0,,,6.0,,,8.0,13.0
2020-02-21,FR-IDF,6.0,0.0,,,6.0,,,8.0,13.0
2020-02-21,FR-PAC,6.0,0.0,,,6.0,,,8.0,13.0
2020-02-21,FR-OCC,6.0,0.0,,,6.0,,,8.0,13.0
2020-02-21,FR-NOR,6.0,0.0,,,6.0,,,8.0,13.0
2020-02-21,FR-NAQ,6.0,0.0,,,6.0,,,8.0,13.0
2020-02-21,FR-HDF,6.0,0.0,,,6.0,,,8.0,13.0
2020-02-21,FR-PDL,6.0,0.0,,,6.0,,,8.0,13.0
2020-02-21,FR-CVL,6.0,0.0,,,6.0,,,8.0,13.0
2020-02-21,FR-ARA,6.0,0.0,,,6.0,,,8.0,13.0
2020-02-21,FR-BFC,6.0,0.0,,,6.0,,,8.0,13.0
2020-02-21,FR-GES,6.0,0.0,,,6.0,,,8.0,13.0
2020-02-21,FR-COR,6.0,0.0,,,6.0,,,8.0,13.0
2020-02-21,FR-BRE,6.0,0.0,,,6.0,,,8.0,13.0
2020-02-22,FR-PAC,6.0,0.0,,,6.0,,,8.0,13.0
2020-02-22,FR-OCC,6.0,0.0,,,6.0,,,8.0,13.0
2020-02-22,FR-NOR,6.0,0.0,,,6.0,,,8.0,13.0
2020-02-22,FR-NAQ,6.0,0.0,,,6.0,,,8.0,13.0
2020-02-22,FR-IDF,6.0,0.0,,,6.0,,,8.0,13.0
2020-02-22,FR-HDF,6.0,0.0,,,6.0,,,8.0,13.0
2020-02-22,FR-PDL,6.0,0.0,,,6.0,,,8.0,13.0
2020-02-22,FR-CVL,6.0,0.0,,,6.0,,,8.0,13.0
2020-02-22,FR-COR,6.0,0.0,,,6.0,,,8.0,13.0
2020-02-22,FR-BRE,6.0,0.0,,,6.0,,,8.0,13.0
2020-02-22,FR-BFC,6.0,0.0,,,6.0,,,8.0,13.0
2020-02-22,FR-ARA,6.0,0.0,,,6.0,,,8.0,13.0
2020-02-22,FR-GES,6.0,0.0,,,6.0,,,8.0,13.0
2020-02-23,FR-PDL,6.0,0.0,,,6.0,,,8.0,13.0
2020-02-23,FR-PAC,6.0,0.0,,,6.0,,,8.0,13.0
2020-02-23,FR-OCC,6.0,0.0,,,6.0,,,8.0,13.0
2020-02-23,FR-NOR,6.0,0.0,,,6.0,,,8.0,13.0
2020-02-23,FR-NAQ,6.0,0.0,,,6.0,,,8.0,13.0
2020-02-23,FR-IDF,6.0,0.0,,,6.0,,,8.0,13.0
2020-02-23,FR-HDF,6.0,0.0,,,6.0,,,8.0,13.0
2020-02-23,FR-CVL,6.0,0.0,,,6.0,,,8.0,13.0
2020-02-23,FR-COR,6.0,0.0,,,6.0,,,8.0,13.0
2020-02-23,FR-BRE,6.0,0.0,,,6.0,,,8.0,13.0
2020-02-23,FR-ARA,6.0,0.0,,,6.0,,,8.0,13.0
2020-02-23,FR-GES,6.0,0.0,,,6.0,,,8.0,13.0
2020-02-23,FR-BFC,6.0,0.0,,,6.0,,,8.0,13.0
2020-02-24,FR-PDL,6.0,0.0,,,6.0,,,8.0,13.0
2020-02-24,FR-IDF,6.0,0.0,,,6.0,,,8.0,13.0
2020-02-24,FR-PAC,6.0,0.0,,,6.0,,,8.0,13.0
2020-02-24,FR-OCC,6.0,0.0,,,6.0,,,8.0,13.0
2020-02-24,FR-NOR,6.0,0.0,,,6.0,,,8.0,13.0
2020-02-24,FR-NAQ,6.0,0.0,,,6.0,,,8.0,13.0
2020-02-24,FR-HDF,6.0,0.0,,,6.0,,,8.0,13.0
2020-02-24,FR-CVL,6.0,0.0,,,6.0,,,8.0,13.0
2020-02-24,FR-COR,6.0,0.0,,,6.0,,,8.0,13.0
2020-02-24,FR-BRE,6.0,0.0,,,6.0,,,8.0,13.0
2020-02-24,FR-BFC,6.0,0.0,,,6.0,,,8.0,13.0
2020-02-24,FR-ARA,6.0,0.0,,,6.0,,,8.0,13.0
2020-02-24,FR-GES,6.0,0.0,,,6.0,,,8.0,13.0
2020-02-25,FR-PAC,6.0,0.0,,,6.0,,,8.0,13.0
2020-02-25,FR-OCC,6.0,0.0,,,6.0,,,8.0,13.0
2020-02-25,FR-NOR,6.0,0.0,,,6.0,,,8.0,13.0
2020-02-25,FR-NAQ,6.0,0.0,,,6.0,,,8.0,13.0
2020-02-25,FR-IDF,6.0,0.0,,,6.0,,,8.0,13.0
2020-02-25,FR-HDF,6.0,0.0,,,6.0,,,8.0,13.0
2020-02-25,FR-PDL,6.0,0.0,,,6.0,,,8.0,13.0
2020-02-25,FR-CVL,6.0,0.0,,,6.0,,,8.0,13.0
2020-02-25,FR-COR,6.0,0.0,,,6.0,,,8.0,13.0
2020-02-25,FR-BRE,6.0,0.0,,,6.0,,,8.0,13.0
2020-02-25,FR-BFC,0.0,0.0,,,6.0,,,0.0,0.0
2020-02-25,FR-ARA,0.0,0.0,,,6.0,,,0.0,0.0
2020-02-25,FR-GES,0.0,0.0,,,6.0,,,0.0,0.0
2020-02-26,FR-PDL,0.0,0.0,,,6.0,,,0.0,0.0
2020-02-26,FR-PAC,0.0,0.0,,,6.0,,,0.0,0.0
2020-02-26,FR-OCC,0.0,0.0,,,6.0,,,0.0,0.0
2020-02-26,FR-NOR,0.0,0.0,,,6.0,,,0.0,0.0
2020-02-26,FR-NAQ,0.0,0.0,,,6.0,,,0.0,0.0
2020-02-26,FR-IDF,0.0,0.0,,,6.0,,,0.0,0.0
2020-02-26,FR-HDF,2.0,1.0,,,6.0,,,0.0,0.0
2020-02-26,FR-CVL,2.0,1.0,,,6.0,,,0.0,0.0
2020-02-26,FR-COR,2.0,1.0,,,6.0,,,0.0,0.0
2020-02-26,FR-BRE,2.0,1.0,,,6.0,,,0.0,0.0
2020-02-26,FR-BFC,2.0,1.0,,,6.0,,,0.0,0.0
2020-02-26,FR-ARA,2.0,1.0,,,6.0,,,0.0,0.0
2020-02-26,FR-GES,1.0,0.0,,,6.0,,,0.0,0.0
2020-02-27,FR-IDF,1.0,0.0,,,6.0,,,0.0,0.0
2020-02-27,FR-PAC,1.0,0.0,,,6.0,,,0.0,0.0
2020-02-27,FR-OCC,1.0,0.0,,,6.0,,,0.0,0.0
2020-02-27,FR-NOR,1.0,0.0,,,6.0,,,0.0,0.0
2020-02-27,FR-NAQ,1.0,0.0,,,6.0,,,0.0,0.0
2020-02-27,FR-HDF,1.0,0.0,,,6.0,,,0.0,0.0
2020-02-27,FR-PDL,1.0,0.0,,,6.0,,,0.0,0.0
2020-02-27,FR-CVL,1.0,0.0,,,6.0,,,0.0,0.0
2020-02-27,FR-ARA,2.0,0.0,,,6.0,,,7.0,20.0
2020-02-27,FR-BFC,2.0,0.0,,,6.0,,,7.0,20.0
2020-02-27,FR-GES,2.0,0.0,,,6.0,,,7.0,20.0
2020-02-27,FR-COR,2.0,0.0,,,6.0,,,7.0,20.0
2020-02-27,FR-BRE,2.0,0.0,,,6.0,,,7.0,20.0
2020-02-28,FR-PDL,1.0,0.0,,,6.0,,,0.0,0.0
2020-02-28,FR-PAC,0.0,0.0,,,6.0,,,0.0,0.0
2020-02-28,FR-OCC,1.0,0.0,,,6.0,,,0.0,0.0
2020-02-28,FR-NOR,1.0,0.0,,,6.0,,,0.0,0.0
2020-02-28,FR-IDF,9.0,0.0,,,6.0,,,8.0,35.0
2020-02-28,FR-HDF,9.0,0.0,,,6.0,,,2.0,2.0
2020-02-28,FR-NAQ,1.0,0.0,,,6.0,,,8.0,35.0
2020-02-28,FR-CVL,0.0,0.0,,,6.0,,,0.0,0.0
2020-02-28,FR-COR,0.0,0.0,,,6.0,,,0.0,0.0
2020-02-28,FR-BRE,1.0,0.0,,,6.0,,,0.0,0.0
2020-02-28,FR-BFC,5.0,0.0,,,6.0,,,3.0,3.0
2020-02-28,FR-ARA,11.0,0.0,,,6.0,,,1.0,21.0
2020-02-28,FR-GES,1.0,0.0,,,6.0,,,2.0,2.0
2020-02-29,FR-NAQ,4.0,0.0,,,6.0,,,1.0,36.0
2020-02-29,FR-PAC,4.0,0.0,,,6.0,,,1.0,36.0
2020-02-29,FR-PDL,4.0,0.0,,,6.0,,,1.0,36.0
2020-02-29,FR-OCC,4.0,0.0,,,6.0,,,1.0,36.0
2020-02-29,FR-NOR,4.0,0.0,,,6.0,,,1.0,36.0
2020-02-29,FR-IDF,4.0,0.0,,,6.0,,,1.0,36.0
2020-02-29,FR-BFC,4.0,0.0,,,6.0,,,1.0,36.0
2020-02-29,FR-GES,4.0,0.0,,,6.0,,,1.0,36.0
2020-02-29,FR-CVL,4.0,0.0,,,6.0,,,1.0,36.0
2020-02-29,FR-COR,4.0,0.0,,,6.0,,,1.0,36.0
2020-02-29,FR-BRE,4.0,0.0,,,6.0,,,1.0,36.0
2020-02-29,FR-ARA,4.0,0.0,,,6.0,,,1.0,36.0
2020-02-29,FR-HDF,4.0,0.0,,,6.0,,,1.0,36.0
2020-03-01,FR-PDL,4.0,0.0,,,6.0,,,1.0,36.0
2020-03-01,FR-PAC,4.0,0.0,,,6.0,,,1.0,36.0
2020-03-01,FR-OCC,4.0,0.0,,,6.0,,,1.0,36.0
2020-03-01,FR-NOR,4.0,0.0,,,6.0,,,1.0,36.0
2020-03-01,FR-IDF,4.0,0.0,,,6.0,,,1.0,36.0
2020-03-01,FR-NAQ,4.0,0.0,,,6.0,,,1.0,36.0
2020-03-01,FR-HDF,4.0,0.0,,,6.0,,,1.0,36.0
2020-03-01,FR-CVL,4.0,0.0,,,6.0,,,1.0,36.0
2020-03-01,FR-COR,4.0,0.0,,,6.0,,,1.0,36.0
2020-03-01,FR-BRE,4.0,0.0,,,6.0,,,1.0,36.0
2020-03-01,FR-BFC,10.0,0.0,,,6.0,,,2.0,5.0
2020-03-01,FR-ARA,10.0,0.0,,,6.0,,,2.0,5.0
2020-03-01,FR-GES,10.0,0.0,,,6.0,,,2.0,5.0
2020-03-02,FR-PAC,9.0,0.0,,,6.0,,,3.0,3.0
2020-03-02,FR-OCC,6.0,0.0,,,6.0,,,3.0,3.0
2020-03-02,FR-NOR,2.0,0.0,,,6.0,,,3.0,3.0
2020-03-02,FR-NAQ,4.0,0.0,,,6.0,,,2.0,38.0
2020-03-02,FR-IDF,34.0,0.0,,,6.0,,,3.0,38.0
2020-03-02,FR-HDF,45.0,0.0,,,6.0,,,3.0,5.0
2020-03-02,FR-PDL,5.0,0.0,,,6.0,,,3.0,3.0
2020-03-02,FR-CVL,0.0,0.0,,,6.0,,,3.0,3.0
2020-03-02,FR-COR,0.0,0.0,,,6.0,,,3.0,3.0
2020-03-02,FR-BRE,13.0,0.0,,,6.0,,,3.0,3.0
2020-03-02,FR-BFC,8.0,0.0,,,6.0,,,1.0,6.0
2020-03-02,FR-ARA,37.0,0.0,,,6.0,6.0,,3.0,24.0
2020-03-02,FR-GES,12.0,0.0,,,6.0,6.0,,3.0,5.0
2020-03-03,FR-PDL,5.0,0.0,,,6.0,6.0,,1.0,4.0
2020-03-03,FR-PAC,10.0,0.0,,,6.0,6.0,,1.0,4.0
2020-03-03,FR-OCC,7.0,0.0,,,6.0,6.0,,1.0,4.0
2020-03-03,FR-NOR,2.0,0.0,,,6.0,6.0,,1.0,4.0
2020-03-03,FR-NAQ,4.0,0.0,,,6.0,6.0,,1.0,39.0
2020-03-03,FR-IDF,37.0,0.0,,,6.0,6.0,,1.0,39.0
2020-03-03,FR-HDF,59.0,0.0,,,6.0,6.0,,1.0,6.0
2020-03-03,FR-CVL,0.0,0.0,,,6.0,6.0,,1.0,4.0
2020-03-03,FR-COR,0.0,0.0,,,6.0,6.0,,1.0,4.0
2020-03-03,FR-BRE,19.0,0.0,,,6.0,6.0,,1.0,4.0
2020-03-03,FR-BFC,15.0,0.0,,,6.0,6.0,,1.0,7.0
2020-03-03,FR-ARA,40.0,0.0,,,6.0,6.0,,1.0,25.0
2020-03-03,FR-GES,13.0,0.0,,,6.0,6.0,,1.0,6.0
2020-03-04,FR-PDL,7.0,0.0,,,6.0,6.0,,1.0,5.0
2020-03-04,FR-PAC,18.0,0.0,,,6.0,6.0,,1.0,5.0
2020-03-04,FR-OCC,9.0,0.0,,,6.0,6.0,,1.0,5.0
2020-03-04,FR-NOR,2.0,0.0,,,6.0,6.0,,1.0,5.0
2020-03-04,FR-NAQ,5.0,0.0,,,6.0,1.0,,1.0,40.0
2020-03-04,FR-IDF,55.0,0.0,,,6.0,1.0,,1.0,40.0
2020-03-04,FR-HDF,65.0,0.0,,,6.0,1.0,,1.0,7.0
2020-03-04,FR-CVL,0.0,0.0,,,6.0,1.0,,1.0,5.0
2020-03-04,FR-ARA,51.0,0.0,,4.0,47.0,6.0,,1.0,26.0
2020-03-04,FR-BFC,19.0,0.0,,4.0,47.0,6.0,,1.0,8.0
2020-03-04,FR-GES,38.0,0.0,,4.0,47.0,6.0,,1.0,7.0
2020-03-04,FR-COR,0.0,0.0,,4.0,47.0,6.0,,1.0,5.0
2020-03-04,FR-BRE,24.0,0.0,,4.0,47.0,6.0,,1.0,5.0
2020-03-05,FR-PAC,26.0,0.0,,4.0,47.0,6.0,,1.0,6.0
2020-03-05,FR-OCC,11.0,0.0,,4.0,47.0,6.0,,1.0,6.0
2020-03-05,FR-NOR,6.0,0.0,,4.0,47.0,6.0,,1.0,6.0
2020-03-05,FR-NAQ,8.0,0.0,,4.0,47.0,1.0,,1.0,41.0
2020-03-05,FR-IDF,77.0,0.0,,4.0,47.0,1.0,,1.0,41.0
2020-03-05,FR-HDF,74.0,4.0,,4.0,47.0,1.0,,1.0,8.0
2020-03-05,FR-PDL,8.0,4.0,,4.0,47.0,1.0,,1.0,6.0
2020-03-05,FR-CVL,3.0,4.0,,4.0,47.0,1.0,,1.0,6.0
2020-03-05,FR-COR,3.0,0.0,,0.0,47.0,0.0,,1.0,6.0
2020-03-05,FR-BRE,31.0,0.0,,0.0,47.0,0.0,,1.0,6.0
2020-03-05,FR-BFC,44.0,0.0,,0.0,47.0,0.0,,1.0,9.0
2020-03-05,FR-ARA,64.0,0.0,,0.0,47.0,6.0,,1.0,27.0
2020-03-05,FR-GES,77.0,0.0,,0.0,47.0,6.0,,1.0,8.0
2020-03-06,FR-PDL,16.0,0.0,,0.0,47.0,6.0,,1.0,7.0
2020-03-06,FR-PAC,31.0,0.0,,0.0,47.0,6.0,,1.0,7.0
2020-03-06,FR-OCC,18.0,0.0,,0.0,47.0,6.0,,1.0,7.0
2020-03-06,FR-NOR,11.0,0.0,,0.0,47.0,6.0,,1.0,7.0
2020-03-06,FR-NAQ,11.0,0.0,,0.0,47.0,2.0,,1.0,42.0
2020-03-06,FR-IDF,131.0,1.0,,0.0,47.0,2.0,,1.0,42.0
2020-03-06,FR-HDF,97.0,1.0,,0.0,47.0,2.0,,1.0,9.0
2020-03-06,FR-CVL,11.0,1.0,,0.0,47.0,2.0,,1.0,7.0
2020-03-06,FR-COR,5.0,0.0,,0.0,47.0,0.0,,1.0,7.0
2020-03-06,FR-BRE,34.0,0.0,,0.0,47.0,0.0,,1.0,7.0
2020-03-06,FR-ARA,87.0,0.0,,0.0,47.0,6.0,,1.0,28.0
2020-03-06,FR-GES,136.0,0.0,,0.0,47.0,6.0,,1.0,9.0
2020-03-06,FR-BFC,80.0,0.0,,0.0,47.0,6.0,,1.0,10.0
2020-03-07,FR-PDL,18.0,0.0,,0.0,47.0,6.0,,1.0,8.0
2020-03-07,FR-IDF,161.0,1.0,,0.0,47.0,6.0,,1.0,43.0
2020-03-07,FR-PAC,38.0,0.0,,0.0,47.0,6.0,,1.0,8.0
2020-03-07,FR-OCC,36.0,0.0,,1.0,47.0,1.0,,1.0,8.0
2020-03-07,FR-NOR,11.0,1.0,,1.0,47.0,1.0,,1.0,8.0
2020-03-07,FR-NAQ,17.0,1.0,,1.0,47.0,2.0,,1.0,43.0
2020-03-07,FR-HDF,173.0,1.0,,1.0,47.0,2.0,,1.0,10.0
2020-03-07,FR-CVL,16.0,1.0,,1.0,47.0,2.0,,1.0,8.0
2020-03-07,FR-COR,19.0,0.0,,0.0,47.0,0.0,,1.0,8.0
2020-03-07,FR-BRE,47.0,0.0,,0.0,47.0,0.0,,1.0,8.0
2020-03-07,FR-BFC,129.0,0.0,,0.0,47.0,0.0,,1.0,11.0
2020-03-07,FR-ARA,125.0,0.0,,0.0,47.0,6.0,,1.0,29.0
2020-03-07,FR-GES,250.0,0.0,,0.0,47.0,6.0,,1.0,10.0
2020-03-08,FR-PAC,52.0,0.0,,0.0,47.0,6.0,,1.0,9.0
2020-03-08,FR-OCC,52.0,0.0,,0.0,47.0,6.0,,1.0,9.0
2020-03-08,FR-NOR,22.0,1.0,,0.0,47.0,6.0,,1.0,9.0
2020-03-08,FR-NAQ,29.0,1.0,,0.0,47.0,2.0,,1.0,44.0
2020-03-08,FR-IDF,226.0,1.0,,0.0,47.0,2.0,,1.0,44.0
2020-03-08,FR-HDF,226.0,1.0,,0.0,47.0,2.0,,1.0,44.0
2020-03-08,FR-PDL,24.0,1.0,,0.0,47.0,1.0,,1.0,9.0
2020-03-08,FR-CVL,17.0,1.0,,0.0,47.0,1.0,,1.0,9.0
2020-03-08,FR-COR,17.0,1.0,,0.0,47.0,1.0,,1.0,9.0
2020-03-08,FR-BRE,59.0,1.0,,0.0,47.0,1.0,,1.0,9.0
2020-03-08,FR-BFC,112.0,0.0,,0.0,47.0,1.0,,1.0,12.0
2020-03-08,FR-ARA,146.0,1.0,,0.0,47.0,8.0,,1.0,30.0
2020-03-08,FR-GES,262.0,3.0,,45.0,47.0,8.0,,1.0,11.0
2020-03-09,FR-PDL,262.0,3.0,,45.0,47.0,8.0,,1.0,11.0
2020-03-09,FR-PAC,72.0,0.0,,45.0,47.0,8.0,,1.0,10.0
2020-03-09,FR-OCC,60.0,0.0,,2.0,47.0,1.0,,2.0,10.0
2020-03-09,FR-NOR,25.0,1.0,,2.0,47.0,1.0,,1.0,10.0
2020-03-09,FR-NAQ,39.0,1.0,,2.0,47.0,2.0,,1.0,45.0
2020-03-09,FR-IDF,283.0,1.0,,2.0,47.0,2.0,,1.0,45.0
2020-03-09,FR-HDF,181.0,15.0,,2.0,47.0,2.0,,2.0,12.0
2020-03-09,FR-CVL,181.0,15.0,,2.0,47.0,2.0,,2.0,12.0
2020-03-09,FR-COR,38.0,1.0,,2.0,47.0,0.0,,2.0,10.0
2020-03-09,FR-BRE,71.0,1.0,,2.0,47.0,0.0,,1.0,10.0
2020-03-09,FR-BFC,119.0,0.0,,2.0,47.0,0.0,,1.0,13.0
2020-03-09,FR-ARA,182.0,3.0,,2.0,47.0,8.0,,1.0,31.0
2020-03-09,FR-GES,310.0,4.0,,2.0,47.0,8.0,,1.0,12.0
2020-03-10,FR-IDF,334.0,4.0,,2.0,47.0,8.0,,1.0,46.0
2020-03-10,FR-PAC,90.0,0.0,,2.0,47.0,8.0,,1.0,11.0
2020-03-10,FR-OCC,61.0,0.0,,2.0,47.0,8.0,,1.0,11.0
2020-03-10,FR-NOR,39.0,1.0,,2.0,47.0,8.0,,1.0,11.0
2020-03-10,FR-NAQ,55.0,1.0,,2.0,47.0,2.0,,1.0,46.0
2020-03-10,FR-HDF,222.0,16.0,,2.0,47.0,2.0,,1.0,13.0
2020-03-10,FR-PDL,27.0,16.0,,2.0,47.0,4.0,,2.0,11.0
2020-03-10,FR-CVL,18.0,16.0,,2.0,47.0,4.0,,2.0,11.0
2020-03-10,FR-COR,42.0,2.0,,2.0,47.0,0.0,,1.0,11.0
2020-03-10,FR-BRE,81.0,2.0,,2.0,47.0,0.0,,1.0,11.0
2020-03-10,FR-BFC,147.0,1.0,,5.0,47.0,0.0,,1.0,14.0
2020-03-10,FR-ARA,227.0,3.0,,5.0,47.0,8.0,,1.0,32.0
2020-03-10,FR-GES,464.0,5.0,,5.0,47.0,8.0,,1.0,13.0
2020-03-11,FR-PAC,112.0,0.0,,6.0,47.0,8.0,,1.0,12.0
2020-03-11,FR-OCC,118.0,0.0,,8.0,47.0,1.0,,1.0,12.0
2020-03-11,FR-NOR,57.0,1.0,,8.0,47.0,1.0,,1.0,12.0
2020-03-11,FR-NAQ,72.0,1.0,,8.0,47.0,2.0,,1.0,47.0
2020-03-11,FR-IDF,512.0,4.0,,8.0,47.0,2.0,,1.0,47.0
2020-03-11,FR-HDF,263.0,4.0,,8.0,47.0,2.0,,1.0,14.0
2020-03-11,FR-PDL,34.0,4.0,,8.0,47.0,2.0,,1.0,12.0
2020-03-11,FR-CVL,20.0,4.0,,8.0,47.0,2.0,,1.0,12.0
2020-03-11,FR-COR,51.0,3.0,,2.0,47.0,0.0,,1.0,12.0
2020-03-11,FR-BRE,94.0,1.0,,2.0,47.0,0.0,,1.0,12.0
2020-03-11,FR-BFC,165.0,3.0,,8.0,47.0,0.0,,1.0,15.0
2020-03-11,FR-ARA,264.0,3.0,,8.0,47.0,8.0,,1.0,33.0
2020-03-11,FR-GES,587.0,9.0,,8.0,47.0,8.0,,1.0,14.0
2020-03-12,FR-PDL,42.0,9.0,,8.0,47.0,4.0,,1.0,13.0
2020-03-12,FR-PAC,151.0,0.0,,7.0,47.0,4.0,,1.0,13.0
2020-03-12,FR-OCC,150.0,0.0,,11.0,47.0,1.0,,1.0,13.0
2020-03-12,FR-NOR,68.0,1.0,,11.0,8.0,1.0,,1.0,13.0
2020-03-12,FR-NAQ,88.0,1.0,,11.0,8.0,2.0,,1.0,48.0
2020-03-12,FR-IDF,605.0,4.0,,11.0,8.0,2.0,,1.0,48.0
2020-03-12,FR-HDF,349.0,20.0,,11.0,8.0,2.0,,1.0,15.0
2020-03-12,FR-CVL,30.0,20.0,,11.0,8.0,2.0,,1.0,13.0
2020-03-12,FR-COR,64.0,3.0,,2.0,8.0,0.0,,1.0,13.0
2020-03-12,FR-BRE,120.0,3.0,,2.0,8.0,0.0,,1.0,13.0
2020-03-12,FR-BFC,219.0,5.0,,11.0,8.0,0.0,,1.0,16.0
2020-03-12,FR-ARA,333.0,7.0,,11.0,8.0,8.0,,1.0,34.0
2020-03-12,FR-GES,699.0,7.0,,11.0,8.0,8.0,,1.0,15.0
2020-03-13,FR-NAQ,115.0,7.0,,11.0,8.0,2.0,,1.0,49.0
2020-03-13,FR-PDL,56.0,7.0,,11.0,8.0,4.0,,1.0,14.0
2020-03-13,FR-PAC,212.0,0.0,,11.0,8.0,4.0,,1.0,14.0
2020-03-13,FR-OCC,175.0,0.0,,17.0,8.0,3.0,,1.0,14.0
2020-03-13,FR-NOR,97.0,1.0,,17.0,11.0,3.0,,1.0,14.0
2020-03-13,FR-IDF,876.0,1.0,,17.0,11.0,3.0,,1.0,49.0
2020-03-13,FR-HDF,397.0,26.0,,17.0,11.0,3.0,,1.0,16.0
2020-03-13,FR-GES,911.0,21.0,,17.0,11.0,3.0,,1.0,16.0
2020-03-13,FR-CVL,33.0,21.0,,17.0,11.0,3.0,,1.0,14.0
2020-03-13,FR-COR,85.0,5.0,,2.0,11.0,0.0,,1.0,14.0
2020-03-13,FR-BRE,157.0,3.0,,2.0,11.0,0.0,,1.0,14.0
2020-03-13,FR-BFC,272.0,5.0,,15.0,11.0,0.0,,1.0,17.0
2020-03-13,FR-ARA,416.0,5.0,,15.0,11.0,0.0,,1.0,35.0
2020-03-14,FR-PAC,281.0,5.0,,15.0,11.0,0.0,,1.0,15.0
2020-03-14,FR-OCC,214.0,5.0,,17.0,11.0,3.0,,1.0,15.0
2020-03-14,FR-NOR,127.0,1.0,,17.0,12.0,3.0,,1.0,15.0
2020-03-14,FR-NAQ,133.0,1.0,,17.0,12.0,2.0,,1.0,50.0
2020-03-14,FR-IDF,1240.0,1.0,,155.0,12.0,2.0,,1.0,50.0
2020-03-14,FR-HDF,466.0,29.0,,155.0,12.0,2.0,,1.0,17.0
2020-03-14,FR-PDL,82.0,29.0,,155.0,12.0,4.0,,1.0,15.0
2020-03-14,FR-CVL,54.0,29.0,,155.0,12.0,4.0,,1.0,15.0
2020-03-14,FR-COR,106.0,5.0,,2.0,12.0,4.0,,1.0,15.0
2020-03-14,FR-BRE,182.0,3.0,,2.0,12.0,4.0,,1.0,15.0
2020-03-14,FR-BFC,340.0,6.0,,20.0,12.0,4.0,,1.0,18.0
2020-03-14,FR-ARA,454.0,12.0,,20.0,12.0,8.0,,1.0,36.0
2020-03-14,FR-GES,1085.0,24.0,,20.0,12.0,8.0,,1.0,17.0
2020-03-15,FR-PDL,99.0,24.0,,20.0,12.0,4.0,,1.0,16.0
2020-03-15,FR-PAC,330.0,24.0,,20.0,12.0,4.0,,1.0,16.0
2020-03-15,FR-OCC,254.0,1.0,,23.0,12.0,3.0,,1.0,16.0
2020-03-15,FR-NOR,143.0,1.0,,23.0,19.0,3.0,,1.0,16.0
2020-03-15,FR-NAQ,152.0,2.0,,23.0,19.0,2.0,,1.0,51.0
2020-03-15,FR-IDF,1209.0,2.0,,23.0,19.0,2.0,,1.0,51.0
2020-03-15,FR-HDF,507.0,2.0,,23.0,19.0,2.0,,1.0,18.0
2020-03-15,FR-CVL,71.0,2.0,,23.0,19.0,2.0,,1.0,16.0
2020-03-15,FR-COR,115.0,5.0,,2.0,19.0,2.0,,1.0,16.0
2020-03-15,FR-BRE,207.0,3.0,,2.0,19.0,2.0,,1.0,16.0
2020-03-15,FR-BFC,412.0,6.0,,25.0,19.0,2.0,,1.0,19.0
2020-03-15,FR-ARA,523.0,18.0,,25.0,19.0,8.0,,1.0,37.0
2020-03-15,FR-GES,1378.0,45.0,,25.0,19.0,8.0,,1.0,18.0
2020-03-16,FR-NAQ,179.0,2.0,,25.0,19.0,2.0,,1.0,52.0
2020-03-16,FR-PDL,109.0,0.0,,25.0,19.0,2.0,,1.0,17.0
2020-03-16,FR-PAC,405.0,0.0,,25.0,19.0,2.0,,1.0,17.0
2020-03-16,FR-OCC,284.0,3.0,,23.0,19.0,3.0,,1.0,17.0
2020-03-16,FR-NOR,156.0,3.0,,23.0,19.0,3.0,,1.0,17.0
2020-03-16,FR-IDF,1762.0,3.0,,23.0,19.0,3.0,,1.0,52.0
2020-03-16,FR-HDF,587.0,39.0,,23.0,19.0,3.0,,1.0,19.0
2020-03-16,FR-GES,1543.0,51.0,,23.0,19.0,3.0,,1.0,19.0
2020-03-16,FR-CVL,90.0,51.0,,23.0,19.0,3.0,,1.0,17.0
2020-03-16,FR-COR,126.0,7.0,,2.0,19.0,0.0,,1.0,17.0
2020-03-16,FR-BRE,233.0,3.0,,2.0,19.0,0.0,,1.0,17.0
2020-03-16,FR-BFC,507.0,6.0,,28.0,146.0,25.0,,1.0,20.0
2020-03-16,FR-ARA,618.0,20.0,,28.0,146.0,25.0,,1.0,38.0
2020-03-17,FR-PAC,481.0,4.0,,22.0,128.0,25.0,,1.0,18.0
2020-03-17,FR-OCC,313.0,5.0,,32.0,80.0,25.0,,1.0,18.0
2020-03-17,FR-NOR,174.0,5.0,,32.0,80.0,25.0,,1.0,18.0
2020-03-17,FR-NAQ,207.0,2.0,,32.0,80.0,2.0,,1.0,53.0
2020-03-17,FR-IDF,2177.0,2.0,,32.0,80.0,2.0,,1.0,53.0
2020-03-17,FR-HDF,613.0,46.0,,32.0,80.0,2.0,,1.0,20.0
2020-03-17,FR-PDL,126.0,1.0,,13.0,80.0,2.0,,1.0,18.0
2020-03-17,FR-CVL,103.0,1.0,,13.0,80.0,2.0,,1.0,18.0
2020-03-17,FR-COR,145.0,1.0,,13.0,80.0,2.0,,1.0,18.0
2020-03-17,FR-BRE,247.0,3.0,,13.0,80.0,2.0,,1.0,18.0
2020-03-17,FR-BFC,549.0,10.0,,31.0,156.0,2.0,,1.0,21.0
2020-03-17,FR-ARA,710.0,24.0,,31.0,156.0,2.0,,1.0,39.0
2020-03-17,FR-GES,1820.0,61.0,,31.0,156.0,2.0,,1.0,20.0
2020-03-18,FR-PDL,128.0,1.0,,13.0,44.0,36.0,,1.0,19.0
2020-03-18,FR-PAC,574.0,7.0,,33.0,178.0,202.0,,1.0,19.0
2020-03-18,FR-OCC,389.0,10.0,,39.0,99.0,51.0,,1.0,19.0
2020-03-18,FR-NOR,208.0,3.0,,4.0,45.0,6.0,,1.0,19.0
2020-03-18,FR-NAQ,242.0,2.0,,12.0,41.0,11.0,,1.0,54.0
2020-03-18,FR-IDF,2693.0,36.0,,294.0,957.0,129.0,,1.0,54.0
2020-03-18,FR-HDF,668.0,55.0,,87.0,313.0,77.0,,1.0,21.0
2020-03-18,FR-CVL,128.0,1.0,,5.0,14.0,0.0,,1.0,19.0
2020-03-18,FR-COR,152.0,0.0,,0.0,0.0,0.0,,1.0,19.0
2020-03-18,FR-BRE,273.0,7.0,,25.0,60.0,69.0,,1.0,19.0
2020-03-18,FR-BFC,593.0,20.0,,43.0,170.0,20.0,,1.0,22.0
2020-03-18,FR-ARA,858.0,27.0,,35.0,172.0,69.0,,1.0,40.0
2020-03-18,FR-GES,2163.0,120.0,,204.0,879.0,146.0,,1.0,21.0
2020-03-19,FR-NAQ,305.0,3.0,,11.0,52.0,19.0,,1.0,55.0
2020-03-19,FR-PDL,160.0,3.0,,23.0,58.0,50.0,,1.0,20.0
2020-03-19,FR-PAC,693.0,9.0,,44.0,213.0,253.0,,1.0,20.0
2020-03-19,FR-OCC,472.0,17.0,,62.0,155.0,59.0,,1.0,20.0
2020-03-19,FR-NOR,241.0,5.0,,6.0,46.0,9.0,,1.0,20.0
2020-03-19,FR-IDF,3384.0,56.0,,360.0,1356.0,213.0,,1.0,55.0
2020-03-19,FR-HDF,719.0,69.0,,105.0,394.0,129.0,,1.0,22.0
2020-03-19,FR-GES,2643.0,148.0,,300.0,1169.0,213.0,,1.0,22.0
2020-03-19,FR-CVL,157.0,1.0,,10.0,31.0,1.0,,1.0,20.0
2020-03-19,FR-COR,164.0,1.0,,0.0,1.0,1.0,,1.0,20.0
2020-03-19,FR-BRE,297.0,10.0,,26.0,85.0,77.0,,1.0,20.0
2020-03-19,FR-BFC,696.0,23.0,,60.0,194.0,50.0,,1.0,23.0
2020-03-19,FR-ARA,1014.0,39.0,,79.0,385.0,132.0,,1.0,41.0
2020-03-20,FR-PAC,826.0,11.0,,59.0,281.0,280.0,,1.0,21.0
2020-03-20,FR-OCC,537.0,23.0,,67.0,185.0,73.0,,1.0,21.0
2020-03-20,FR-NOR,287.0,7.0,,13.0,71.0,14.0,,1.0,21.0
2020-03-20,FR-NAQ,432.0,4.0,,15.0,65.0,31.0,,1.0,56.0
2020-03-20,FR-IDF,3818.0,99.0,,484.0,1785.0,350.0,,1.0,56.0
2020-03-20,FR-HDF,759.0,81.0,,136.0,432.0,156.0,,1.0,23.0
2020-03-20,FR-PDL,190.0,3.0,,25.0,73.0,62.0,,1.0,21.0
2020-03-20,FR-CVL,219.0,2.0,,13.0,58.0,2.0,,1.0,21.0
2020-03-20,FR-COR,168.0,3.0,,14.0,66.0,33.0,,1.0,21.0
2020-03-20,FR-BRE,346.0,12.0,,27.0,96.0,55.0,,1.0,21.0
2020-03-20,FR-BFC,770.0,28.0,,73.0,270.0,68.0,,1.0,24.0
2020-03-20,FR-ARA,1101.0,33.0,,87.0,463.0,179.0,,1.0,42.0
2020-03-20,FR-GES,3006.0,183.0,,352.0,1551.0,284.0,,1.0,23.0
2020-03-21,FR-PDL,234.0,3.0,,21.0,80.0,62.0,,1.0,22.0
2020-03-21,FR-PAC,1041.0,13.0,,75.0,326.0,310.0,,1.0,22.0
2020-03-21,FR-OCC,611.0,27.0,,72.0,209.0,92.0,,1.0,22.0
2020-03-21,FR-NOR,345.0,7.0,,21.0,98.0,14.0,,1.0,22.0
2020-03-21,FR-NAQ,521.0,7.0,,28.0,107.0,32.0,,1.0,57.0
2020-03-21,FR-IDF,4695.0,122.0,,545.0,2087.0,438.0,,1.0,57.0
2020-03-21,FR-HDF,856.0,91.0,,144.0,424.0,157.0,,1.0,24.0
2020-03-21,FR-CVL,254.0,2.0,,15.0,64.0,5.0,,1.0,22.0
2020-03-21,FR-COR,173.0,4.0,,14.0,68.0,35.0,,1.0,22.0
2020-03-21,FR-BRE,359.0,15.0,,26.0,116.0,55.0,,1.0,22.0
2020-03-21,FR-BFC,903.0,36.0,,79.0,285.0,88.0,,1.0,25.0
2020-03-21,FR-ARA,1266.0,57.0,,88.0,525.0,192.0,,1.0,43.0
2020-03-21,FR-GES,3089.0,230.0,,435.0,1767.0,357.0,,1.0,24.0
2020-03-22,FR-NAQ,612.0,8.0,,40.0,146.0,39.0,,1.0,58.0
2020-03-22,FR-PDL,270.0,4.0,,25.0,99.0,71.0,,1.0,23.0
2020-03-22,FR-PAC,1372.0,15.0,,85.0,388.0,327.0,,1.0,23.0
2020-03-22,FR-OCC,671.0,30.0,,86.0,293.0,123.0,,1.0,23.0
2020-03-22,FR-NOR,462.0,9.0,,25.0,126.0,15.0,,1.0,23.0
2020-03-22,FR-IDF,5283.0,140.0,,640.0,2485.0,513.0,,1.0,58.0
2020-03-22,FR-HDF,943.0,97.0,,151.0,485.0,173.0,,1.0,25.0
2020-03-22,FR-GES,3395.0,252.0,,370.0,1690.0,391.0,,1.0,25.0
2020-03-22,FR-CVL,291.0,3.0,,21.0,74.0,10.0,,1.0,23.0
2020-03-22,FR-COR,183.0,6.0,,13.0,64.0,36.0,,1.0,23.0
2020-03-22,FR-BRE,446.0,17.0,,32.0,133.0,59.0,,1.0,23.0
2020-03-22,FR-BFC,1178.0,51.0,,100.0,359.0,165.0,,1.0,26.0
2020-03-22,FR-ARA,1431.0,72.0,,106.0,641.0,212.0,,1.0,44.0
2020-03-23,FR-PAC,1510.0,20.0,,113.0,481.0,377.0,,1.0,24.0
2020-03-23,FR-OCC,781.0,32.0,,101.0,331.0,131.0,,1.0,24.0
2020-03-23,FR-NOR,511.0,10.0,,33.0,148.0,24.0,,1.0,24.0
2020-03-23,FR-NAQ,676.0,13.0,,47.0,196.0,59.0,,1.0,59.0
2020-03-23,FR-IDF,6211.0,193.0,,787.0,3142.0,665.0,,1.0,59.0
2020-03-23,FR-HDF,1287.0,108.0,,187.0,612.0,201.0,,1.0,26.0
2020-03-23,FR-PDL,293.0,10.0,,51.0,147.0,74.0,,1.0,24.0
2020-03-23,FR-CVL,361.0,8.0,,38.0,117.0,15.0,,1.0,24.0
2020-03-23,FR-COR,203.0,11.0,,9.0,65.0,45.0,,1.0,24.0
2020-03-23,FR-BRE,490.0,23.0,,31.0,133.0,68.0,,1.0,24.0
2020-03-23,FR-BFC,1347.0,62.0,,115.0,411.0,198.0,,1.0,27.0
2020-03-23,FR-ARA,1738.0,85.0,,157.0,853.0,254.0,,1.0,45.0
2020-03-23,FR-GES,4256.0,335.0,,526.0,2348.0,491.0,,1.0,26.0
2020-03-24,FR-PDL,343.0,14.0,,58.0,187.0,95.0,,1.0,25.0
2020-03-24,FR-PAC,1595.0,26.0,,133.0,545.0,435.0,,1.0,25.0
2020-03-24,FR-OCC,900.0,40.0,,125.0,382.0,161.0,,1.0,25.0
2020-03-24,FR-NOR,586.0,16.0,,40.0,170.0,32.0,,1.0,25.0
2020-03-24,FR-NAQ,789.0,16.0,,69.0,263.0,78.0,,1.0,60.0
2020-03-24,FR-IDF,6798.0,262.0,,973.0,3683.0,854.0,,1.0,60.0
2020-03-24,FR-HDF,1532.0,123.0,,208.0,711.0,250.0,,1.0,27.0
2020-03-24,FR-CVL,450.0,9.0,,44.0,137.0,24.0,,1.0,25.0
2020-03-24,FR-COR,218.0,12.0,,9.0,70.0,51.0,,1.0,25.0
2020-03-24,FR-BRE,526.0,25.0,,31.0,133.0,86.0,,1.0,25.0
2020-03-24,FR-BFC,1510.0,86.0,,121.0,480.0,285.0,,1.0,28.0
2020-03-24,FR-ARA,1857.0,86.0,,193.0,1000.0,324.0,,1.0,46.0
2020-03-24,FR-GES,4922.0,407.0,,595.0,2722.0,625.0,,1.0,27.0
2020-03-25,FR-NAQ,912.0,25.0,,75.0,340.0,115.0,,1.0,61.0
2020-03-25,FR-PDL,379.0,17.0,,66.0,236.0,106.0,,1.0,26.0
2020-03-25,FR-PAC,1927.0,33.0,,144.0,608.0,535.0,,1.0,26.0
2020-03-25,FR-OCC,1082.0,46.0,,147.0,469.0,195.0,,1.0,26.0
2020-03-25,FR-NOR,688.0,19.0,,56.0,226.0,50.0,,1.0,26.0
2020-03-25,FR-IDF,7660.0,357.0,,1114.0,4389.0,1084.0,,1.0,61.0
2020-03-25,FR-HDF,1753.0,137.0,,247.0,829.0,287.0,,1.0,28.0
2020-03-25,FR-GES,5479.0,506.0,,651.0,3068.0,774.0,,1.0,28.0
2020-03-25,FR-CVL,561.0,13.0,,58.0,165.0,36.0,,1.0,26.0
2020-03-25,FR-COR,233.0,15.0,,9.0,81.0,54.0,,1.0,26.0
2020-03-25,FR-BRE,603.0,28.0,,38.0,158.0,102.0,,1.0,26.0
2020-03-25,FR-BFC,1569.0,102.0,,150.0,591.0,348.0,,1.0,29.0
2020-03-25,FR-ARA,2093.0,107.0,,258.0,1239.0,404.0,,1.0,47.0
2020-03-26,FR-PAC,2093.0,44.0,,164.0,695.0,599.0,,1.0,27.0
2020-03-26,FR-OCC,1285.0,54.0,,177.0,551.0,233.0,,1.0,27.0
2020-03-26,FR-NOR,789.0,20.0,,75.0,273.0,62.0,,1.0,27.0
2020-03-26,FR-NAQ,1007.0,34.0,,96.0,399.0,163.0,,1.0,62.0
2020-03-26,FR-IDF,1007.0,460.0,,1269.0,5132.0,1310.0,,1.0,62.0
2020-03-26,FR-HDF,1910.0,150.0,,271.0,919.0,360.0,,1.0,29.0
2020-03-26,FR-PDL,459.0,31.0,,60.0,282.0,127.0,,1.0,27.0
2020-03-26,FR-CVL,645.0,20.0,,69.0,198.0,50.0,,1.0,27.0
2020-03-26,FR-COR,250.0,21.0,,13.0,95.0,63.0,,1.0,27.0
2020-03-26,FR-BRE,707.0,29.0,,45.0,202.0,114.0,,1.0,27.0
2020-03-26,FR-BFC,707.0,123.0,,166.0,679.0,402.0,,1.0,30.0
2020-03-26,FR-ARA,707.0,134.0,,290.0,1437.0,496.0,,1.0,48.0
2020-03-26,FR-GES,707.0,584.0,,701.0,3292.0,961.0,,1.0,29.0
2020-03-27,FR-PDL,530.0,42.0,,84.0,371.0,141.0,,1.0,28.0
2020-03-27,FR-PAC,530.0,48.0,,186.0,823.0,642.0,,1.0,28.0
2020-03-27,FR-OCC,1553.0,61.0,,187.0,622.0,269.0,,1.0,28.0
2020-03-27,FR-NOR,912.0,25.0,,93.0,314.0,73.0,,1.0,28.0
2020-03-27,FR-NAQ,912.0,42.0,,116.0,482.0,191.0,,1.0,63.0
2020-03-27,FR-IDF,912.0,578.0,,1389.0,5793.0,1598.0,,1.0,63.0
2020-03-27,FR-HDF,2300.0,169.0,,302.0,993.0,401.0,,1.0,30.0
2020-03-27,FR-CVL,830.0,26.0,,81.0,247.0,64.0,,1.0,28.0
2020-03-27,FR-COR,263.0,21.0,,13.0,102.0,70.0,,1.0,28.0
2020-03-27,FR-BRE,797.0,34.0,,49.0,215.0,131.0,,1.0,28.0
2020-03-27,FR-BFC,797.0,139.0,,186.0,740.0,432.0,,1.0,31.0
2020-03-27,FR-ARA,797.0,166.0,,348.0,1652.0,618.0,,1.0,49.0
2020-03-27,FR-GES,797.0,657.0,,699.0,3290.0,1074.0,,1.0,30.0
2020-03-28,FR-NAQ,797.0,50.0,,127.0,490.0,211.0,,1.0,64.0
2020-03-28,FR-PDL,637.0,42.0,,103.0,441.0,163.0,,1.0,29.0
2020-03-28,FR-PAC,637.0,55.0,,208.0,934.0,691.0,,1.0,29.0
2020-03-28,FR-OCC,1823.0,68.0,,212.0,706.0,314.0,,1.0,29.0
2020-03-28,FR-NOR,1823.0,26.0,,111.0,385.0,95.0,,1.0,29.0
2020-03-28,FR-IDF,1823.0,688.0,,1570.0,6523.0,1937.0,,1.0,64.0
2020-03-28,FR-HDF,2498.0,196.0,,329.0,1132.0,452.0,,1.0,31.0
2020-03-28,FR-GES,2498.0,753.0,,756.0,3525.0,1264.0,,1.0,31.0
2020-03-28,FR-CVL,1030.0,35.0,,89.0,293.0,77.0,,1.0,29.0
2020-03-28,FR-COR,1030.0,19.0,,18.0,108.0,71.0,,1.0,29.0
2020-03-28,FR-BRE,889.0,37.0,,57.0,240.0,145.0,,1.0,29.0
2020-03-28,FR-BFC,889.0,148.0,,194.0,787.0,493.0,,1.0,32.0
2020-03-28,FR-ARA,889.0,196.0,,441.0,1943.0,709.0,,1.0,50.0
2020-03-29,FR-PAC,889.0,65.0,,243.0,1073.0,710.0,,1.0,30.0
2020-03-29,FR-OCC,2002.0,76.0,,227.0,798.0,325.0,,1.0,30.0
2020-03-29,FR-NOR,2002.0,32.0,,122.0,455.0,103.0,,1.0,30.0
2020-03-29,FR-NAQ,2002.0,58.0,,160.0,558.0,226.0,,1.0,65.0
2020-03-29,FR-IDF,2002.0,807.0,,1668.0,7092.0,2109.0,,1.0,65.0
2020-03-29,FR-HDF,2653.0,211.0,,348.0,1237.0,476.0,,1.0,32.0
2020-03-29,FR-PDL,780.0,47.0,,107.0,499.0,182.0,,1.0,30.0
2020-03-29,FR-CVL,1157.0,39.0,,103.0,358.0,83.0,,1.0,30.0
2020-03-29,FR-COR,1157.0,19.0,,20.0,98.0,79.0,,1.0,30.0
2020-03-29,FR-BRE,962.0,41.0,,57.0,268.0,166.0,,1.0,30.0
2020-03-29,FR-BFC,962.0,164.0,,217.0,873.0,549.0,,1.0,33.0
2020-03-29,FR-ARA,962.0,227.0,,497.0,2115.0,755.0,,1.0,51.0
2020-03-29,FR-GES,962.0,815.0,,792.0,3735.0,1348.0,,1.0,32.0
2020-03-30,FR-PDL,852.0,58.0,,116.0,512.0,195.0,,1.0,31.0
2020-03-30,FR-PAC,852.0,80.0,,287.0,1220.0,759.0,,1.0,31.0
2020-03-30,FR-OCC,2126.0,82.0,,267.0,854.0,365.0,,1.0,31.0
2020-03-30,FR-NOR,2126.0,42.0,,137.0,479.0,113.0,,1.0,31.0
2020-03-30,FR-NAQ,2126.0,72.0,,182.0,658.0,277.0,,1.0,66.0
2020-03-30,FR-IDF,2126.0,954.0,,1792.0,7689.0,2394.0,,1.0,66.0
2020-03-30,FR-HDF,3011.0,242.0,,400.0,1355.0,497.0,,1.0,33.0
2020-03-30,FR-CVL,3011.0,53.0,,115.0,457.0,100.0,,1.0,31.0
2020-03-30,FR-COR,3011.0,19.0,,20.0,99.0,91.0,,1.0,31.0
2020-03-30,FR-BRE,3011.0,45.0,,63.0,290.0,170.0,,1.0,31.0
2020-03-30,FR-BFC,3011.0,187.0,,220.0,902.0,604.0,,1.0,34.0
2020-03-30,FR-ARA,3011.0,264.0,,583.0,2333.0,842.0,,1.0,52.0
2020-03-30,FR-GES,3011.0,919.0,,844.0,3950.0,1487.0,,1.0,33.0
2020-03-31,FR-NAQ,3011.0,78.0,,202.0,672.0,348.0,,1.0,67.0
2020-03-31,FR-PDL,916.0,82.0,,132.0,510.0,256.0,,1.0,32.0
2020-03-31,FR-PAC,916.0,103.0,,311.0,1296.0,897.0,,1.0,32.0
2020-03-31,FR-OCC,2374.0,91.0,,278.0,887.0,450.0,,1.0,32.0
2020-03-31,FR-NOR,2374.0,62.0,,161.0,535.0,151.0,,1.0,32.0
2020-03-31,FR-IDF,2374.0,1176.0,,1977.0,8615.0,2907.0,,1.0,67.0
2020-03-31,FR-HDF,2374.0,280.0,,450.0,1464.0,628.0,,1.0,34.0
2020-03-31,FR-GES,2374.0,1015.0,,890.0,4246.0,1704.0,,1.0,34.0
2020-03-31,FR-CVL,2374.0,60.0,,134.0,503.0,113.0,,1.0,32.0
2020-03-31,FR-COR,2374.0,20.0,,22.0,99.0,100.0,,1.0,32.0
2020-03-31,FR-BRE,2374.0,50.0,,69.0,299.0,187.0,,1.0,32.0
2020-03-31,FR-BFC,2374.0,214.0,,212.0,914.0,675.0,,1.0,35.0
2020-03-31,FR-ARA,2374.0,295.0,,624.0,2487.0,982.0,,1.0,53.0
2020-04-01,FR-PAC,2374.0,124.0,,332.0,1357.0,1016.0,,1.0,33.0
2020-04-01,FR-OCC,2374.0,108.0,,304.0,926.0,524.0,,1.0,33.0
2020-04-01,FR-NOR,2374.0,69.0,,164.0,563.0,201.0,,1.0,33.0
2020-04-01,FR-NAQ,2374.0,82.0,,215.0,700.0,414.0,,1.0,68.0
2020-04-01,FR-IDF,2374.0,1369.0,,2204.0,9609.0,3432.0,,1.0,68.0
2020-04-01,FR-HDF,2374.0,330.0,,478.0,1615.0,723.0,,1.0,35.0
2020-04-01,FR-PDL,1021.0,100.0,,133.0,549.0,296.0,,1.0,33.0
2020-04-01,FR-CVL,1021.0,77.0,,153.0,562.0,138.0,,1.0,33.0
2020-04-01,FR-COR,1021.0,21.0,,25.0,96.0,102.0,,1.0,33.0
2020-04-01,FR-BRE,1021.0,55.0,,79.0,342.0,202.0,,1.0,33.0
2020-04-01,FR-BFC,1021.0,230.0,,229.0,963.0,642.0,,1.0,36.0
2020-04-01,FR-ARA,1021.0,349.0,,672.0,2635.0,1193.0,,1.0,54.0
2020-04-01,FR-GES,1021.0,1126.0,,918.0,4470.0,1975.0,,1.0,35.0
2020-04-02,FR-PDL,1021.0,92.0,,141.0,571.0,338.0,,1.0,34.0
2020-04-02,FR-PAC,1021.0,141.0,,370.0,1492.0,1075.0,,1.0,34.0
2020-04-02,FR-OCC,1021.0,119.0,,321.0,976.0,597.0,,1.0,34.0
2020-04-02,FR-NOR,1021.0,81.0,,185.0,630.0,224.0,,1.0,34.0
2020-04-02,FR-NAQ,1021.0,94.0,,221.0,705.0,495.0,,1.0,69.0
2020-04-02,FR-IDF,1021.0,1571.0,,2301.0,10273.0,3887.0,,1.0,69.0
2020-04-02,FR-HDF,1021.0,370.0,,518.0,1825.0,857.0,,1.0,36.0
2020-04-02,FR-CVL,1021.0,84.0,,172.0,640.0,179.0,,1.0,34.0
2020-04-02,FR-COR,1021.0,23.0,,25.0,86.0,110.0,,1.0,34.0
2020-04-02,FR-BRE,1021.0,63.0,,111.0,391.0,227.0,,1.0,34.0
2020-04-02,FR-BFC,1021.0,271.0,,250.0,1017.0,746.0,,1.0,37.0
2020-04-02,FR-ARA,1021.0,404.0,,700.0,2706.0,1374.0,,1.0,55.0
2020-04-02,FR-GES,1021.0,1178.0,,949.0,4657.0,2227.0,,1.0,36.0
2020-04-03,FR-NAQ,1021.0,100.0,,225.0,735.0,521.0,,1.0,70.0
2020-04-03,FR-PAC,1021.0,161.0,,397.0,1593.0,1177.0,,1.0,35.0
2020-04-03,FR-OCC,1021.0,131.0,,322.0,1007.0,657.0,,1.0,35.0
2020-04-03,FR-NOR,1021.0,93.0,,197.0,650.0,258.0,,1.0,35.0
2020-04-03,FR-PDL,1021.0,109.0,,169.0,608.0,387.0,,1.0,35.0
2020-04-03,FR-IDF,1021.0,1791.0,,2375.0,10824.0,4417.0,,1.0,70.0
2020-04-03,FR-COR,1021.0,26.0,,25.0,88.0,116.0,,1.0,35.0
2020-04-03,FR-GES,1021.0,1311.0,,971.0,4712.0,2543.0,,1.0,37.0
2020-04-03,FR-CVL,1021.0,98.0,,182.0,674.0,225.0,,1.0,35.0
2020-04-03,FR-BRE,1021.0,69.0,,114.0,411.0,245.0,,1.0,35.0
2020-04-03,FR-BFC,1021.0,303.0,,265.0,1028.0,835.0,,1.0,38.0
2020-04-03,FR-ARA,1021.0,448.0,,725.0,2838.0,1537.0,,1.0,56.0
2020-04-03,FR-HDF,1021.0,438.0,,547.0,1967.0,984.0,,1.0,37.0
2020-04-04,FR-PAC,1021.0,178.0,,417.0,1641.0,1272.0,,1.0,36.0
2020-04-04,FR-OCC,1021.0,148.0,,328.0,997.0,709.0,,1.0,36.0
2020-04-04,FR-NOR,1021.0,99.0,,209.0,677.0,296.0,,1.0,36.0
2020-04-04,FR-NAQ,1021.0,111.0,,239.0,749.0,553.0,,1.0,71.0
2020-04-04,FR-IDF,1021.0,1967.0,,2436.0,11214.0,4881.0,,1.0,71.0
2020-04-04,FR-HDF,1021.0,488.0,,561.0,2035.0,1122.0,,1.0,38.0
2020-04-04,FR-PDL,1021.0,118.0,,175.0,649.0,417.0,,1.0,36.0
2020-04-04,FR-CVL,1021.0,106.0,,194.0,730.0,271.0,,1.0,36.0
2020-04-04,FR-COR,1021.0,26.0,,26.0,97.0,116.0,,1.0,36.0
2020-04-04,FR-BRE,1021.0,75.0,,112.0,408.0,273.0,,1.0,36.0
2020-04-04,FR-BFC,1021.0,323.0,,274.0,1075.0,910.0,,1.0,39.0
2020-04-04,FR-ARA,1021.0,478.0,,749.0,2874.0,1694.0,,1.0,57.0
2020-04-04,FR-GES,1021.0,1402.0,,960.0,4702.0,2801.0,,1.0,38.0
2020-04-05,FR-PDL,1021.0,123.0,,181.0,667.0,441.0,,1.0,37.0
2020-04-05,FR-PAC,1021.0,195.0,,435.0,1722.0,1304.0,,1.0,37.0
2020-04-05,FR-OCC,1021.0,158.0,,321.0,1024.0,757.0,,1.0,37.0
2020-04-05,FR-NOR,1021.0,111.0,,217.0,710.0,308.0,,1.0,37.0
2020-04-05,FR-NAQ,1021.0,120.0,,243.0,762.0,579.0,,1.0,72.0
2020-04-05,FR-IDF,1021.0,2107.0,,2506.0,11474.0,5166.0,,1.0,72.0
2020-04-05,FR-HDF,1021.0,520.0,,573.0,2119.0,1153.0,,1.0,39.0
2020-04-05,FR-CVL,1021.0,115.0,,194.0,751.0,298.0,,1.0,37.0
2020-04-05,FR-COR,1021.0,26.0,,26.0,95.0,117.0,,1.0,37.0
2020-04-05,FR-BRE,1021.0,81.0,,112.0,423.0,280.0,,1.0,37.0
2020-04-05,FR-BFC,1021.0,341.0,,275.0,1120.0,942.0,,1.0,40.0
2020-04-05,FR-ARA,1021.0,508.0,,779.0,2983.0,1756.0,,1.0,58.0
2020-04-05,FR-GES,1021.0,1471.0,,950.0,4739.0,2953.0,,1.0,39.0
2020-04-06,FR-NAQ,1021.0,138.0,,247.0,783.0,610.0,,1.0,73.0
2020-04-06,FR-PDL,1412.0,164.0,,182.0,685.0,456.0,,1.0,38.0
2020-04-06,FR-PAC,1412.0,231.0,,440.0,1827.0,1383.0,,1.0,38.0
2020-04-06,FR-OCC,1412.0,172.0,,333.0,1047.0,803.0,,1.0,38.0
2020-04-06,FR-NOR,1412.0,127.0,,223.0,712.0,338.0,,1.0,38.0
2020-04-06,FR-IDF,1412.0,2355.0,,2537.0,11762.0,5597.0,,1.0,73.0
2020-04-06,FR-HDF,1412.0,577.0,,567.0,2227.0,1219.0,,1.0,40.0
2020-04-06,FR-GES,1412.0,1574.0,,937.0,4801.0,3115.0,,1.0,40.0
2020-04-06,FR-CVL,1412.0,132.0,,203.0,793.0,329.0,,1.0,38.0
2020-04-06,FR-COR,1412.0,30.0,,24.0,92.0,115.0,,1.0,38.0
2020-04-06,FR-BRE,1412.0,88.0,,141.0,471.0,296.0,,1.0,38.0
2020-04-06,FR-BFC,1412.0,367.0,,285.0,1176.0,986.0,,1.0,41.0
2020-04-06,FR-ARA,1412.0,555.0,,783.0,3030.0,1866.0,,1.0,59.0
2020-04-07,FR-PAC,1412.0,253.0,,434.0,1738.0,1574.0,,1.0,39.0
2020-04-07,FR-OCC,1412.0,180.0,,336.0,1031.0,914.0,,1.0,39.0
2020-04-07,FR-NOR,1412.0,147.0,,225.0,713.0,392.0,,1.0,39.0
2020-04-07,FR-NAQ,1412.0,152.0,,243.0,792.0,669.0,,1.0,74.0
2020-04-07,FR-IDF,1412.0,2627.0,,2601.0,12074.0,6225.0,,1.0,74.0
2020-04-07,FR-HDF,1412.0,635.0,,583.0,2336.0,1393.0,,1.0,41.0
2020-04-07,FR-PDL,1494.0,182.0,,176.0,694.0,517.0,,1.0,39.0
2020-04-07,FR-CVL,1494.0,140.0,,206.0,803.0,380.0,,1.0,39.0
2020-04-07,FR-COR,1494.0,32.0,,23.0,94.0,113.0,,1.0,39.0
2020-04-07,FR-BRE,1494.0,97.0,,133.0,461.0,335.0,,1.0,39.0
2020-04-07,FR-BFC,1494.0,396.0,,295.0,1212.0,1077.0,,1.0,42.0
2020-04-07,FR-ARA,1494.0,600.0,,755.0,2959.0,2125.0,,1.0,60.0
2020-04-07,FR-GES,1494.0,1674.0,,950.0,4819.0,3461.0,,1.0,41.0
2020-04-08,FR-PDL,1630.0,194.0,,178.0,700.0,570.0,,1.0,40.0
2020-04-08,FR-PAC,1630.0,269.0,,437.0,1796.0,1684.0,,1.0,40.0
2020-04-08,FR-OCC,1630.0,195.0,,329.0,1000.0,993.0,,1.0,40.0
2020-04-08,FR-NOR,1630.0,165.0,,213.0,680.0,453.0,,1.0,40.0
2020-04-08,FR-NAQ,1630.0,165.0,,242.0,797.0,739.0,,1.0,75.0
2020-04-08,FR-IDF,1630.0,2850.0,,2668.0,12479.0,6857.0,,1.0,75.0
2020-04-08,FR-HDF,1630.0,679.0,,573.0,2366.0,1575.0,,1.0,42.0
2020-04-08,FR-CVL,1630.0,154.0,,213.0,837.0,435.0,,1.0,40.0
2020-04-08,FR-COR,1630.0,32.0,,21.0,90.0,110.0,,1.0,40.0
2020-04-08,FR-BRE,1630.0,107.0,,136.0,484.0,373.0,,1.0,40.0
2020-04-08,FR-BFC,1630.0,412.0,,292.0,1227.0,1160.0,,1.0,43.0
2020-04-08,FR-ARA,1630.0,654.0,,736.0,2908.0,2330.0,,1.0,61.0
2020-04-08,FR-GES,1630.0,1781.0,,937.0,4708.0,3797.0,,1.0,42.0
2020-04-09,FR-NAQ,1630.0,173.0,,241.0,792.0,789.0,,1.0,76.0
2020-04-09,FR-PDL,1630.0,158.0,,176.0,741.0,615.0,,1.0,41.0
2020-04-09,FR-PAC,1630.0,286.0,,426.0,1748.0,1841.0,,1.0,41.0
2020-04-09,FR-OCC,1630.0,203.0,,328.0,992.0,1081.0,,1.0,41.0
2020-04-09,FR-NOR,1630.0,179.0,,212.0,697.0,478.0,,1.0,41.0
2020-04-09,FR-IDF,1630.0,3040.0,,2654.0,12681.0,7620.0,,1.0,76.0
2020-04-09,FR-HDF,1630.0,715.0,,580.0,2429.0,1703.0,,1.0,43.0
2020-04-09,FR-GES,1630.0,1854.0,,916.0,4769.0,4160.0,,1.0,43.0
2020-04-09,FR-CVL,1630.0,164.0,,207.0,864.0,474.0,,1.0,41.0
2020-04-09,FR-COR,1630.0,34.0,,19.0,88.0,112.0,,1.0,41.0
2020-04-09,FR-BRE,1630.0,109.0,,133.0,493.0,397.0,,1.0,41.0
2020-04-09,FR-BFC,1630.0,427.0,,283.0,1211.0,1237.0,,1.0,44.0
2020-04-09,FR-ARA,1630.0,685.0,,720.0,2962.0,2508.0,,1.0,62.0
2020-04-10,FR-PAC,1630.0,299.0,,441.0,1804.0,1946.0,,1.0,42.0
2020-04-10,FR-OCC,1630.0,222.0,,314.0,958.0,1187.0,,1.0,42.0
2020-04-10,FR-NOR,1630.0,188.0,,210.0,741.0,512.0,,1.0,42.0
2020-04-10,FR-NAQ,1630.0,174.0,,229.0,775.0,742.0,,1.0,77.0
2020-04-10,FR-IDF,1630.0,3300.0,,2665.0,12861.0,8313.0,,1.0,77.0
2020-04-10,FR-HDF,1630.0,762.0,,564.0,2456.0,1873.0,,1.0,44.0
2020-04-10,FR-PDL,1630.0,169.0,,180.0,772.0,641.0,,1.0,42.0
2020-04-10,FR-CVL,1630.0,179.0,,210.0,894.0,528.0,,1.0,42.0
2020-04-10,FR-COR,1630.0,35.0,,15.0,78.0,120.0,,1.0,42.0
2020-04-10,FR-BRE,1630.0,121.0,,127.0,490.0,431.0,,1.0,42.0
2020-04-10,FR-BFC,1630.0,459.0,,290.0,1282.0,1309.0,,1.0,45.0
2020-04-10,FR-ARA,1630.0,721.0,,698.0,2950.0,2691.0,,1.0,63.0
2020-04-10,FR-GES,1630.0,1952.0,,889.0,4899.0,4445.0,,1.0,44.0
2020-04-11,FR-PDL,1630.0,178.0,,164.0,778.0,688.0,,1.0,43.0
2020-04-11,FR-PAC,1630.0,317.0,,436.0,1766.0,2053.0,,1.0,43.0
2020-04-11,FR-OCC,1630.0,233.0,,295.0,918.0,1271.0,,1.0,43.0
2020-04-11,FR-NOR,1630.0,196.0,,202.0,726.0,554.0,,1.0,43.0
2020-04-11,FR-NAQ,1630.0,180.0,,264.0,815.0,794.0,,1.0,78.0
2020-04-11,FR-IDF,1630.0,3416.0,,2617.0,13025.0,8796.0,,1.0,78.0
2020-04-11,FR-HDF,1630.0,806.0,,550.0,2444.0,2017.0,,1.0,45.0
2020-04-11,FR-CVL,1630.0,193.0,,202.0,922.0,568.0,,1.0,43.0
2020-04-11,FR-COR,1630.0,36.0,,15.0,76.0,122.0,,1.0,43.0
2020-04-11,FR-BRE,1630.0,129.0,,124.0,487.0,470.0,,1.0,43.0
2020-04-11,FR-BFC,1630.0,478.0,,278.0,1239.0,1411.0,,1.0,46.0
2020-04-11,FR-ARA,1630.0,755.0,,682.0,2985.0,2857.0,,1.0,64.0
2020-04-11,FR-GES,1630.0,2008.0,,881.0,4841.0,4581.0,,1.0,45.0
2020-04-12,FR-NAQ,1630.0,190.0,,257.0,832.0,815.0,,1.0,79.0
2020-04-12,FR-PDL,1630.0,182.0,,167.0,810.0,703.0,,1.0,44.0
2020-04-12,FR-PAC,1630.0,328.0,,438.0,1830.0,2097.0,,1.0,44.0
2020-04-12,FR-OCC,1630.0,239.0,,294.0,954.0,1287.0,,1.0,44.0
2020-04-12,FR-NOR,1630.0,201.0,,186.0,716.0,586.0,,1.0,44.0
2020-04-12,FR-IDF,1630.0,3548.0,,2626.0,13165.0,9119.0,,1.0,79.0
2020-04-12,FR-HDF,1630.0,840.0,,549.0,2484.0,2075.0,,1.0,46.0
2020-04-12,FR-GES,1630.0,2064.0,,878.0,4887.0,4725.0,,1.0,46.0
2020-04-12,FR-CVL,1630.0,201.0,,193.0,943.0,581.0,,1.0,44.0
2020-04-12,FR-COR,1630.0,36.0,,14.0,74.0,126.0,,1.0,44.0
2020-04-12,FR-BRE,1630.0,132.0,,119.0,510.0,481.0,,1.0,44.0
2020-04-12,FR-BFC,1630.0,500.0,,278.0,1294.0,1441.0,,1.0,47.0
2020-04-12,FR-ARA,1630.0,773.0,,674.0,3025.0,2936.0,,1.0,65.0
2020-04-13,FR-PAC,1630.0,348.0,,437.0,1859.0,2126.0,,1.0,45.0
2020-04-13,FR-OCC,1630.0,248.0,,291.0,974.0,1313.0,,1.0,45.0
2020-04-13,FR-NOR,1630.0,211.0,,189.0,713.0,597.0,,1.0,45.0
2020-04-13,FR-NAQ,1630.0,194.0,,259.0,857.0,828.0,,1.0,80.0
2020-04-13,FR-IDF,1630.0,3704.0,,2604.0,13196.0,9387.0,,1.0,80.0
2020-04-13,FR-HDF,1630.0,873.0,,543.0,2525.0,2102.0,,1.0,47.0
2020-04-13,FR-PDL,1630.0,192.0,,162.0,823.0,719.0,,1.0,45.0
2020-04-13,FR-CVL,1630.0,214.0,,196.0,983.0,595.0,,1.0,45.0
2020-04-13,FR-COR,1630.0,38.0,,15.0,75.0,126.0,,1.0,45.0
2020-04-13,FR-BRE,1630.0,136.0,,118.0,510.0,490.0,,1.0,45.0
2020-04-13,FR-BFC,1630.0,512.0,,284.0,1309.0,1463.0,,1.0,48.0
2020-04-13,FR-ARA,1630.0,794.0,,671.0,3055.0,2970.0,,1.0,66.0
2020-04-13,FR-GES,1630.0,2105.0,,880.0,4928.0,4788.0,,1.0,47.0
2020-04-14,FR-PDL,1630.0,209.0,,155.0,820.0,749.0,,1.0,46.0
2020-04-14,FR-PAC,1630.0,374.0,,422.0,1894.0,2240.0,,1.0,46.0
2020-04-14,FR-OCC,1630.0,266.0,,279.0,962.0,1360.0,,1.0,46.0
2020-04-14,FR-NOR,1630.0,230.0,,177.0,705.0,626.0,,1.0,46.0
2020-04-14,FR-NAQ,1630.0,207.0,,251.0,866.0,866.0,,1.0,81.0
2020-04-14,FR-IDF,1630.0,3937.0,,2599.0,13209.0,9790.0,,1.0,81.0
2020-04-14,FR-HDF,1630.0,920.0,,538.0,2552.0,2184.0,,1.0,48.0
2020-04-14,FR-CVL,1630.0,227.0,,188.0,996.0,629.0,,1.0,46.0
2020-04-14,FR-COR,1630.0,38.0,,16.0,74.0,129.0,,1.0,46.0
2020-04-14,FR-BRE,1630.0,149.0,,117.0,514.0,511.0,,1.0,46.0
2020-04-14,FR-BFC,1630.0,551.0,,285.0,1361.0,1488.0,,1.0,49.0
2020-04-14,FR-ARA,1630.0,836.0,,659.0,3044.0,3081.0,,1.0,67.0
2020-04-14,FR-GES,1630.0,2166.0,,872.0,4993.0,4928.0,,1.0,48.0
2020-04-15,FR-NAQ,1630.0,214.0,,236.0,828.0,924.0,,1.0,82.0
2020-04-15,FR-PAC,1630.0,393.0,,403.0,1909.0,2345.0,,1.0,47.0
2020-04-15,FR-OCC,1630.0,278.0,,265.0,913.0,1454.0,,1.0,47.0
2020-04-15,FR-NOR,1630.0,242.0,,167.0,686.0,667.0,,1.0,47.0
2020-04-15,FR-PDL,1630.0,222.0,,145.0,794.0,817.0,,1.0,47.0
2020-04-15,FR-IDF,1630.0,4140.0,,2494.0,13018.0,10544.0,,1.0,82.0
2020-04-15,FR-COR,1630.0,41.0,,16.0,83.0,131.0,,1.0,47.0
2020-04-15,FR-GES,1630.0,2249.0,,833.0,4877.0,5324.0,,1.0,49.0
2020-04-15,FR-CVL,1630.0,245.0,,180.0,996.0,687.0,,1.0,47.0
2020-04-15,FR-BRE,1630.0,159.0,,106.0,504.0,540.0,,1.0,47.0
2020-04-15,FR-BFC,1630.0,581.0,,274.0,1341.0,1594.0,,1.0,50.0
2020-04-15,FR-ARA,1630.0,885.0,,639.0,3004.0,3317.0,,1.0,68.0
2020-04-15,FR-HDF,1630.0,975.0,,533.0,2536.0,2371.0,,1.0,49.0
2020-04-16,FR-PAC,1630.0,421.0,,393.0,1883.0,2454.0,,1.0,48.0
2020-04-16,FR-OCC,1630.0,281.0,,256.0,870.0,1526.0,,1.0,48.0
2020-04-16,FR-NOR,1630.0,252.0,,166.0,674.0,706.0,,1.0,48.0
2020-04-16,FR-NAQ,1630.0,220.0,,220.0,812.0,973.0,,1.0,83.0
2020-04-16,FR-IDF,1630.0,4319.0,,2419.0,12834.0,11279.0,,1.0,83.0
2020-04-16,FR-HDF,1630.0,1006.0,,505.0,2536.0,2515.0,,1.0,50.0
2020-04-16,FR-PDL,1630.0,235.0,,136.0,799.0,876.0,,1.0,48.0
2020-04-16,FR-CVL,1630.0,252.0,,165.0,964.0,770.0,,1.0,48.0
2020-04-16,FR-COR,1630.0,41.0,,15.0,84.0,134.0,,1.0,48.0
2020-04-16,FR-BRE,1630.0,166.0,,102.0,484.0,576.0,,1.0,48.0
2020-04-16,FR-BFC,1630.0,607.0,,279.0,1370.0,1659.0,,1.0,51.0
2020-04-16,FR-ARA,1630.0,927.0,,628.0,2970.0,3460.0,,1.0,69.0
2020-04-16,FR-GES,1630.0,2306.0,,810.0,4769.0,5618.0,,1.0,50.0
2020-04-17,FR-PDL,1630.0,242.0,,131.0,802.0,910.0,,1.0,49.0
2020-04-17,FR-PAC,1630.0,447.0,,378.0,1889.0,2572.0,,1.0,49.0
2020-04-17,FR-OCC,1630.0,290.0,,243.0,866.0,1583.0,,1.0,49.0
2020-04-17,FR-NOR,1630.0,262.0,,152.0,660.0,743.0,,1.0,49.0
2020-04-17,FR-NAQ,1630.0,233.0,,203.0,830.0,1002.0,,1.0,84.0
2020-04-17,FR-IDF,1630.0,4510.0,,2341.0,12766.0,11927.0,,1.0,84.0
2020-04-17,FR-HDF,1630.0,1054.0,,494.0,2517.0,2662.0,,1.0,51.0
2020-04-17,FR-CVL,1630.0,264.0,,174.0,973.0,821.0,,1.0,49.0
2020-04-17,FR-COR,1630.0,42.0,,14.0,84.0,135.0,,1.0,49.0
2020-04-17,FR-BRE,1630.0,171.0,,93.0,483.0,596.0,,1.0,49.0
2020-04-17,FR-BFC,1630.0,623.0,,262.0,1380.0,1728.0,,1.0,52.0
2020-04-17,FR-ARA,1630.0,954.0,,601.0,2965.0,3637.0,,1.0,70.0
2020-04-17,FR-GES,1630.0,2358.0,,789.0,4725.0,5828.0,,1.0,51.0
2020-04-18,FR-NAQ,1630.0,241.0,,193.0,812.0,1047.0,,1.0,85.0
2020-04-18,FR-PDL,1630.0,251.0,,125.0,787.0,939.0,,1.0,50.0
2020-04-18,FR-PAC,1630.0,463.0,,364.0,1846.0,2682.0,,1.0,50.0
2020-04-18,FR-OCC,1630.0,292.0,,240.0,860.0,1676.0,,1.0,50.0
2020-04-18,FR-NOR,1630.0,267.0,,146.0,657.0,789.0,,1.0,50.0
2020-04-18,FR-IDF,1630.0,4664.0,,2293.0,12490.0,12555.0,,1.0,85.0
2020-04-18,FR-HDF,1630.0,1077.0,,476.0,2516.0,2744.0,,1.0,52.0
2020-04-18,FR-GES,1630.0,2422.0,,757.0,4632.0,6058.0,,1.0,52.0
2020-04-18,FR-CVL,1630.0,276.0,,166.0,963.0,853.0,,1.0,50.0
2020-04-18,FR-COR,1630.0,42.0,,12.0,76.0,146.0,,1.0,50.0
2020-04-18,FR-BRE,1630.0,181.0,,88.0,468.0,627.0,,1.0,50.0
2020-04-18,FR-BFC,1630.0,644.0,,255.0,1351.0,1788.0,,1.0,53.0
2020-04-18,FR-ARA,1630.0,992.0,,578.0,2942.0,3797.0,,1.0,71.0
2020-04-19,FR-PAC,1630.0,470.0,,348.0,1776.0,2767.0,,1.0,51.0
2020-04-19,FR-OCC,1630.0,295.0,,245.0,877.0,1687.0,,1.0,51.0
2020-04-19,FR-NOR,1630.0,274.0,,149.0,666.0,805.0,,1.0,51.0
2020-04-19,FR-NAQ,1630.0,247.0,,196.0,825.0,1061.0,,1.0,86.0
2020-04-19,FR-IDF,1630.0,4756.0,,2254.0,12474.0,12766.0,,1.0,86.0
2020-04-19,FR-HDF,1630.0,1094.0,,472.0,2539.0,2789.0,,1.0,53.0
2020-04-19,FR-PDL,1630.0,258.0,,121.0,787.0,947.0,,1.0,51.0
2020-04-19,FR-CVL,1630.0,284.0,,169.0,970.0,867.0,,1.0,51.0
2020-04-19,FR-COR,1630.0,44.0,,12.0,75.0,150.0,,1.0,51.0
2020-04-19,FR-BRE,1630.0,185.0,,86.0,461.0,639.0,,1.0,51.0
2020-04-19,FR-BFC,1630.0,657.0,,239.0,1327.0,1839.0,,1.0,54.0
2020-04-19,FR-ARA,1630.0,1011.0,,573.0,2983.0,3833.0,,1.0,72.0
2020-04-19,FR-GES,1630.0,2463.0,,742.0,4608.0,6139.0,,1.0,53.0
2020-04-20,FR-PDL,1630.0,268.0,,123.0,775.0,957.0,,1.0,52.0
2020-04-20,FR-PAC,1630.0,499.0,,355.0,1786.0,2834.0,,1.0,52.0
2020-04-20,FR-OCC,1630.0,312.0,,234.0,893.0,1728.0,,1.0,52.0
2020-04-20,FR-NOR,1630.0,283.0,,143.0,663.0,821.0,,1.0,52.0
2020-04-20,FR-NAQ,1630.0,259.0,,191.0,838.0,1083.0,,1.0,87.0
2020-04-20,FR-IDF,1630.0,4942.0,,2210.0,12474.0,13095.0,,1.0,87.0
2020-04-20,FR-HDF,1630.0,1127.0,,473.0,2578.0,2909.0,,1.0,54.0
2020-04-20,FR-CVL,1630.0,298.0,,171.0,960.0,896.0,,1.0,52.0
2020-04-20,FR-COR,1630.0,47.0,,13.0,70.0,152.0,,1.0,52.0
2020-04-20,FR-BRE,1630.0,189.0,,83.0,455.0,650.0,,1.0,52.0
2020-04-20,FR-BFC,1630.0,677.0,,238.0,1334.0,1864.0,,1.0,55.0
2020-04-20,FR-ARA,1630.0,1062.0,,576.0,2936.0,3904.0,,1.0,73.0
2020-04-20,FR-GES,1630.0,2515.0,,740.0,4592.0,6219.0,,1.0,54.0
2020-04-21,FR-NAQ,1630.0,266.0,,182.0,823.0,1106.0,,1.0,88.0
2020-04-21,FR-PAC,1630.0,526.0,,334.0,1781.0,2945.0,,1.0,53.0
2020-04-21,FR-OCC,1630.0,322.0,,221.0,877.0,1783.0,,1.0,53.0
2020-04-21,FR-NOR,1630.0,292.0,,137.0,650.0,866.0,,1.0,53.0
2020-04-21,FR-PDL,1630.0,276.0,,115.0,760.0,986.0,,1.0,53.0
2020-04-21,FR-IDF,1630.0,5094.0,,2126.0,12269.0,13709.0,,1.0,88.0
2020-04-21,FR-COR,1630.0,48.0,,13.0,67.0,157.0,,1.0,53.0
2020-04-21,FR-GES,1630.0,2564.0,,712.0,4545.0,6476.0,,1.0,55.0
2020-04-21,FR-CVL,1630.0,308.0,,156.0,970.0,943.0,,1.0,53.0
2020-04-21,FR-BRE,1630.0,193.0,,78.0,436.0,678.0,,1.0,53.0
2020-04-21,FR-BFC,1630.0,705.0,,229.0,1319.0,1941.0,,1.0,56.0
2020-04-21,FR-ARA,1630.0,1103.0,,551.0,2872.0,4089.0,,1.0,74.0
2020-04-21,FR-HDF,1630.0,1163.0,,448.0,2517.0,3191.0,,1.0,55.0
2020-04-22,FR-PAC,1630.0,561.0,,326.0,1799.0,3046.0,,1.0,54.0
2020-04-22,FR-OCC,1630.0,328.0,,211.0,857.0,1826.0,,1.0,54.0
2020-04-22,FR-NOR,1630.0,299.0,,133.0,625.0,896.0,,1.0,54.0
2020-04-22,FR-NAQ,1630.0,267.0,,161.0,800.0,1144.0,,1.0,89.0
2020-04-22,FR-IDF,1630.0,5219.0,,2055.0,12134.0,14278.0,,1.0,89.0
2020-04-22,FR-HDF,1630.0,1198.0,,427.0,2460.0,3338.0,,1.0,56.0
2020-04-22,FR-PDL,1630.0,285.0,,107.0,747.0,1026.0,,1.0,54.0
2020-04-22,FR-CVL,1630.0,328.0,,151.0,973.0,977.0,,1.0,54.0
2020-04-22,FR-COR,1630.0,49.0,,11.0,69.0,162.0,,1.0,54.0
2020-04-22,FR-BRE,1630.0,193.0,,74.0,430.0,702.0,,1.0,54.0
2020-04-22,FR-BFC,1630.0,721.0,,234.0,1334.0,2018.0,,1.0,57.0
2020-04-22,FR-ARA,1630.0,1133.0,,516.0,2816.0,4253.0,,1.0,75.0
2020-04-22,FR-GES,1630.0,2612.0,,692.0,4487.0,6672.0,,1.0,56.0
2020-04-23,FR-PDL,1630.0,291.0,,105.0,747.0,1061.0,,1.0,55.0
2020-04-23,FR-PAC,1630.0,575.0,,314.0,1783.0,3136.0,,1.0,55.0
2020-04-23,FR-OCC,1630.0,342.0,,197.0,804.0,1889.0,,1.0,55.0
2020-04-23,FR-NOR,1630.0,307.0,,131.0,614.0,931.0,,1.0,55.0
2020-04-23,FR-NAQ,1630.0,277.0,,156.0,769.0,1199.0,,1.0,90.0
2020-04-23,FR-IDF,1630.0,5330.0,,2006.0,11950.0,14795.0,,1.0,90.0
2020-04-23,FR-HDF,1630.0,1233.0,,421.0,2435.0,3475.0,,1.0,57.0
2020-04-23,FR-CVL,1630.0,334.0,,143.0,965.0,1023.0,,1.0,55.0
2020-04-23,FR-COR,1630.0,49.0,,9.0,66.0,166.0,,1.0,55.0
2020-04-23,FR-BRE,1630.0,199.0,,69.0,430.0,723.0,,1.0,55.0
2020-04-23,FR-BFC,1630.0,753.0,,217.0,1283.0,2088.0,,1.0,58.0
2020-04-23,FR-ARA,1630.0,1167.0,,483.0,2760.0,4391.0,,1.0,76.0
2020-04-23,FR-GES,1630.0,2646.0,,687.0,4416.0,6883.0,,1.0,57.0
2020-04-24,FR-NAQ,1630.0,285.0,,144.0,727.0,1243.0,,1.0,91.0
2020-04-24,FR-PAC,1630.0,610.0,,303.0,1746.0,3239.0,,1.0,56.0
2020-04-24,FR-OCC,1630.0,356.0,,186.0,742.0,1974.0,,1.0,56.0
2020-04-24,FR-NOR,1630.0,312.0,,121.0,612.0,965.0,,1.0,56.0
2020-04-24,FR-PDL,1630.0,303.0,,100.0,722.0,1090.0,,1.0,56.0
2020-04-24,FR-IDF,1630.0,5452.0,,1947.0,11758.0,15345.0,,1.0,91.0
2020-04-24,FR-COR,1630.0,49.0,,9.0,70.0,168.0,,1.0,56.0
2020-04-24,FR-GES,1630.0,2679.0,,672.0,4341.0,7056.0,,1.0,58.0
2020-04-24,FR-CVL,1630.0,343.0,,141.0,966.0,1038.0,,1.0,56.0
2020-04-24,FR-BRE,1630.0,199.0,,59.0,429.0,743.0,,1.0,56.0
2020-04-24,FR-BFC,1630.0,770.0,,203.0,1233.0,2175.0,,1.0,59.0
2020-04-24,FR-ARA,1630.0,1192.0,,465.0,2713.0,4526.0,,1.0,77.0
2020-04-24,FR-HDF,1630.0,1257.0,,408.0,2401.0,3597.0,,1.0,58.0
2020-04-25,FR-PDL,1630.0,307.0,,100.0,717.0,1113.0,,1.0,57.0
2020-04-25,FR-PAC,1630.0,625.0,,289.0,1671.0,3366.0,,1.0,57.0
2020-04-25,FR-OCC,1630.0,361.0,,172.0,724.0,2006.0,,1.0,57.0
2020-04-25,FR-NAQ,1630.0,289.0,,133.0,707.0,1276.0,,1.0,92.0
2020-04-25,FR-IDF,1630.0,5516.0,,1913.0,11609.0,15754.0,,1.0,92.0
2020-04-25,FR-HDF,1630.0,1281.0,,389.0,2385.0,3672.0,,1.0,59.0
2020-04-25,FR-NOR,1630.0,314.0,,116.0,615.0,974.0,,1.0,57.0
2020-04-25,FR-CVL,1630.0,348.0,,144.0,974.0,1056.0,,1.0,57.0
2020-04-25,FR-COR,1630.0,50.0,,9.0,64.0,172.0,,1.0,57.0
2020-04-25,FR-BRE,1630.0,202.0,,59.0,412.0,766.0,,1.0,57.0
2020-04-25,FR-BFC,1630.0,786.0,,201.0,1216.0,2227.0,,1.0,60.0
2020-04-25,FR-ARA,1630.0,1212.0,,444.0,2682.0,4643.0,,1.0,78.0
2020-04-25,FR-GES,1630.0,2714.0,,647.0,4253.0,7232.0,,1.0,59.0
2020-04-26,FR-OCC,1630.0,362.0,,168.0,728.0,2015.0,,1.0,58.0
2020-04-26,FR-NOR,1630.0,319.0,,116.0,608.0,984.0,,1.0,58.0
2020-04-26,FR-NAQ,1630.0,294.0,,134.0,710.0,1284.0,,1.0,93.0
2020-04-26,FR-IDF,1630.0,5578.0,,1891.0,11570.0,15899.0,,1.0,93.0
2020-04-26,FR-HDF,1630.0,1291.0,,390.0,2395.0,3685.0,,1.0,60.0
2020-04-26,FR-COR,1630.0,50.0,,9.0,64.0,172.0,,1.0,58.0
2020-04-26,FR-CVL,1630.0,355.0,,138.0,973.0,1069.0,,1.0,58.0
2020-04-26,FR-BRE,1630.0,203.0,,58.0,408.0,772.0,,1.0,58.0
2020-04-26,FR-BFC,1630.0,797.0,,195.0,1218.0,2237.0,,1.0,61.0
2020-04-26,FR-ARA,1630.0,1226.0,,439.0,2694.0,4671.0,,1.0,79.0
2020-04-26,FR-PAC,1630.0,631.0,,293.0,1693.0,3376.0,,1.0,58.0
2020-04-26,FR-GES,1630.0,2737.0,,643.0,4246.0,7274.0,,1.0,60.0
2020-04-26,FR-PDL,1630.0,314.0,,98.0,711.0,1121.0,,1.0,58.0
