"","matrix..0.20.","matrix..20.30.","matrix..30.40.","matrix..40.50.","matrix..50.60.","matrix..60.70.","matrix..70.80.","matrix.80.","demography.age.group","demography.population","demography.proportion","demography.year","participants.age.group","participants.participants","participants.proportion"
"1",6.6302294197031,0.643832419941829,1.16844469510955,1.09210098625435,0.449164302738977,0.290852659837673,0.119227509271392,0.10631295104462,"[0,20)",15705235,0.24388773753755,2015,"[0,20)",741,0.423186750428327
"2",1.33834469396083,3.22929936305733,1.33258144204246,1.20346145054642,1.23098544630137,0.370528530843355,0.185312376468997,0.180296241025712,"[20,30)",7555258,0.117326151447748,2015,"[20,30)",157,0.0896630496858938
"3",2.33318976873551,1.28009005396429,2.77777777777778,2.20904617578406,1.46431312201256,0.81733034635309,0.311715512114975,0.229549597586722,"[30,40)",7865069,0.12213722901865,2015,"[30,40)",108,0.0616790405482581
"4",1.98571499573738,1.05266736693499,2.011485971619,2.89320388349515,1.9268503410548,0.789528291134511,0.367188361853979,0.203531629195869,"[40,50)",8637545,0.134133065053072,2015,"[40,50)",103,0.0588235294117647
"5",0.841484386183452,1.10942668339703,1.37382963567498,1.98533910318477,2.19354838709677,0.877797517444052,0.338667646448245,0.459901501398175,"[50,60)",8383080,0.130181459544941,2015,"[50,60)",155,0.0885208452312964
"6",0.591109216598557,0.362260686521046,0.831860327989428,0.882486908890048,0.952243925453914,1.5916955017301,0.609827294015038,0.354444017404685,"[60,70)",7727691,0.120003876056569,2015,"[60,70)",289,0.16504854368932
"7",0.404842477907528,0.302704508001606,0.530061322393363,0.685716175742875,0.613822048294806,1.01887702654396,1.09395973154362,0.605341503912852,"[70,80)",4625246,0.0718257818169931,2015,"[70,80)",149,0.0850942318675043
"8",0.428535722100786,0.349616876809461,0.463378084544434,0.451209930366536,0.989520635082305,0.702997556684291,0.718607432588373,0.755102040816326,"80+",3896221,0.0605046995244765,2015,"80+",49,0.0279840091376356
