{
    "activated_measures_ratio": {
	"name": "Taux de mesures activées",
	"name_short": "Mesures",
	"explain": "Représente le niveau total de mesures activées, pour modéliser la charge psychologique sur la population"
    },
    "death_ratio":{
	"name": "Nombre de morts",
	"name_short":"Morts",
	"explain": "Le nombre total de morts à la fin de la pandémie"
    },
    "gdp_accumulated_loss_ratio":{
	"name":"Points de PIB perdus",
	"name_short": "PIB",
	"explain": "Perte économique cumulée en points de PIB annuels à la levée du confinement"
    },
    "ICU_saturation_ratio":{
	"name":"Saturation des lits de soins intensifs",
	"name_short":"Soins intensifs",
	"explain":"Compte le nombre de besoins en équipements de soins intensifs qui n'ont pû être satisfaits pour cause de saturation"
    },
    "inactivity":{
	"name": "Taux moyen d'inactivité réel des actifs en raison des mesures.",
	"name_short":"Inactivité",
	"explain": "Le taux réel de personnes actives ne pouvant pas travailler en raison des mesures."
    }
}
    
