{
  "01": 94,
  "02": 72,
  "03": 47,
  "04": 27,
  "05": 23,
  "06": 178,
  "07": 47,
  "08": 51,
  "09": 20,
  "10": 59,
  "11": 50,
  "12": 37,
  "13": 335,
  "14": 101,
  "15": 20,
  "16": 37,
  "17": 69,
  "18": 40,
  "19": 26,
  "21": 80,
  "22": 55,
  "23": 12,
  "24": 44,
  "25": 81,
  "26": 74,
  "27": 88,
  "28": 58,
  "29": 84,
  "30": 99,
  "31": 186,
  "32": 25,
  "33": 174,
  "34": 156,
  "35": 100,
  "36": 29,
  "37": 82,
  "38": 181,
  "39": 39,
  "40": 44,
  "41": 44,
  "42": 109,
  "43": 32,
  "44": 179,
  "45": 92,
  "46": 23,
  "47": 35,
  "48": 10,
  "49": 102,
  "50": 72,
  "51": 108,
  "52": 32,
  "53": 38,
  "54": 140,
  "55": 35,
  "56": 70,
  "57": 198,
  "58": 30,
  "59": 352,
  "60": 112,
  "61": 40,
  "62": 198,
  "63": 94,
  "64": 73,
  "65": 30,
  "66": 64,
  "67": 216,
  "68": 146,
  "69": 268,
  "70": 35,
  "71": 83,
  "72": 70,
  "73": 62,
  "74": 118,
  "75": 474,
  "76": 182,
  "77": 314,
  "78": 320,
  "79": 40,
  "80": 78,
  "81": 52,
  "82": 35,
  "83": 177,
  "84": 92,
  "85": 85,
  "86": 47,
  "87": 40,
  "88": 69,
  "89": 50,
  "90": 21,
  "91": 291,
  "92": 356,
  "93": 369,
  "94": 311,
  "95": 276,
  "2A": 27,
  "2B": 31,
  "_comment": "generated from /data/data_lits_hopitaux_regions.json. Used in eval_policy_req."
}