{
    "settings":
    {
	"showPopoutIcon": false,
	"showMaximiseIcon":false
    },
    "content":
    [{
	"type":"column",
	"content":
	[{
	    "type": "row",
	    "height":50,
	    "content":
	    [
		{
		    "type": "component",
		    "title":"Radar",
		    "componentName": "optimComponent",
		    "componentState": { "href": "/decov/radar.html", "callback": "radar"},
		    "width":50
		},
		{
		    "type": "component",
		    "title":"Pareto",
		    "componentName": "optimComponent",
		    "componentState": { "href": "/decov/pareto.html", "callback": "pareto"},
		    "width":50
		}
	    ]
	},
	 {
	     "type":"component",
	     "componentName": "optimComponent",
	     "title":"Solutions",
	     "componentState": { "href": "/decov/solutions.html", "callback":"solutions"}
	 }]
    }]
}
