{
"01":70,
"02":"0",
"03":76,
"04":0,
"05":0,
"06":709,
"07":5,
"08":80,
"09":0,
"10":50,
"11":0,
"12":0,
"13":874,
"14":700,
"15":0,
"16":"0",
"17":88,
"18":"0",
"19":0,
"21":667,
"22":596,
"23":50,
"24":0,
"25":314,
"26":80,
"27":"0",
"28":0,
"29":850,
"2A":"0",
"2B":80,
"30":0,
"31":182,
"32":"0",
"33":164,
"34":600,
"35":500,
"36":"0",
"37":0,
"38":442,
"39":45,
"40":0,
"41":"0",
"42":12,
"43":"0",
"44":350,
"45":400,
"46":40,
"47":2,
"48":"0",
"49":0,
"50":500,
"51":80,
"52":0,
"53":0,
"54":0,
"55":"0",
"56":98,
"57":609,
"58":96,
"59":108,
"60":80,
"61":100,
"62":80,
"63":50,
"64":550,
"65":0,
"66":50,
"67":200,
"68":625,
"69":328,
"70":"0",
"71":"0",
"72":83,
"73":96,
"74":5,
"75":850,
"76":98,
"77":58,
"78":77,
"79":35,
"80":0,
"81":0,
"82":40,
"83":50,
"84":0,
"85":917,
"86":600,
"87":667,
"88":35,
"89":0,
"90":30,
"91":10,
"92":397,
"93":2057,
"94":690,
"95":1716
}


