{
  "01": {
    "active": 18.98,
    "all": 39.69
  },
  "02": {
    "active": 18.98,
    "all": 39.69
  },
  "03": {
    "active": 18.98,
    "all": 39.69
  },
  "04": {
    "active": 18.98,
    "all": 39.69
  },
  "05": {
    "active": 18.98,
    "all": 39.69
  },
  "06": {
    "active": 18.98,
    "all": 39.69
  },
  "07": {
    "active": 18.98,
    "all": 39.69
  },
  "08": {
    "active": 18.98,
    "all": 39.69
  },
  "09": {
    "active": 18.98,
    "all": 39.69
  },
  "10": {
    "active": 18.98,
    "all": 39.69
  },
  "11": {
    "active": 18.98,
    "all": 39.69
  },
  "12": {
    "active": 18.98,
    "all": 39.69
  },
  "13": {
    "active": 18.98,
    "all": 39.69
  },
  "14": {
    "active": 18.98,
    "all": 39.69
  },
  "15": {
    "active": 18.98,
    "all": 39.69
  },
  "16": {
    "active": 18.98,
    "all": 39.69
  },
  "17": {
    "active": 18.98,
    "all": 39.69
  },
  "18": {
    "active": 18.98,
    "all": 39.69
  },
  "19": {
    "active": 18.98,
    "all": 39.69
  },
  "21": {
    "active": 18.98,
    "all": 39.69
  },
  "22": {
    "active": 18.98,
    "all": 39.69
  },
  "23": {
    "active": 18.98,
    "all": 39.69
  },
  "24": {
    "active": 18.98,
    "all": 39.69
  },
  "25": {
    "active": 18.98,
    "all": 39.69
  },
  "26": {
    "active": 18.98,
    "all": 39.69
  },
  "27": {
    "active": 18.98,
    "all": 39.69
  },
  "28": {
    "active": 18.98,
    "all": 39.69
  },
  "29": {
    "active": 18.98,
    "all": 39.69
  },
  "30": {
    "active": 18.98,
    "all": 39.69
  },
  "31": {
    "active": 18.98,
    "all": 39.69
  },
  "32": {
    "active": 18.98,
    "all": 39.69
  },
  "33": {
    "active": 18.98,
    "all": 39.69
  },
  "34": {
    "active": 18.98,
    "all": 39.69
  },
  "35": {
    "active": 18.98,
    "all": 39.69
  },
  "36": {
    "active": 18.98,
    "all": 39.69
  },
  "37": {
    "active": 18.98,
    "all": 39.69
  },
  "38": {
    "active": 18.98,
    "all": 39.69
  },
  "39": {
    "active": 18.98,
    "all": 39.69
  },
  "40": {
    "active": 18.98,
    "all": 39.69
  },
  "41": {
    "active": 18.98,
    "all": 39.69
  },
  "42": {
    "active": 18.98,
    "all": 39.69
  },
  "43": {
    "active": 18.98,
    "all": 39.69
  },
  "44": {
    "active": 18.98,
    "all": 39.69
  },
  "45": {
    "active": 18.98,
    "all": 39.69
  },
  "46": {
    "active": 18.98,
    "all": 39.69
  },
  "47": {
    "active": 18.98,
    "all": 39.69
  },
  "48": {
    "active": 18.98,
    "all": 39.69
  },
  "49": {
    "active": 18.98,
    "all": 39.69
  },
  "50": {
    "active": 18.98,
    "all": 39.69
  },
  "51": {
    "active": 18.98,
    "all": 39.69
  },
  "52": {
    "active": 18.98,
    "all": 39.69
  },
  "53": {
    "active": 18.98,
    "all": 39.69
  },
  "54": {
    "active": 18.98,
    "all": 39.69
  },
  "55": {
    "active": 18.98,
    "all": 39.69
  },
  "56": {
    "active": 18.98,
    "all": 39.69
  },
  "57": {
    "active": 18.98,
    "all": 39.69
  },
  "58": {
    "active": 18.98,
    "all": 39.69
  },
  "59": {
    "active": 18.98,
    "all": 39.69
  },
  "60": {
    "active": 18.98,
    "all": 39.69
  },
  "61": {
    "active": 18.98,
    "all": 39.69
  },
  "62": {
    "active": 18.98,
    "all": 39.69
  },
  "63": {
    "active": 18.98,
    "all": 39.69
  },
  "64": {
    "active": 18.98,
    "all": 39.69
  },
  "65": {
    "active": 18.98,
    "all": 39.69
  },
  "66": {
    "active": 18.98,
    "all": 39.69
  },
  "67": {
    "active": 18.98,
    "all": 39.69
  },
  "68": {
    "active": 18.98,
    "all": 39.69
  },
  "69": {
    "active": 18.98,
    "all": 39.69
  },
  "70": {
    "active": 18.98,
    "all": 39.69
  },
  "71": {
    "active": 18.98,
    "all": 39.69
  },
  "72": {
    "active": 18.98,
    "all": 39.69
  },
  "73": {
    "active": 18.98,
    "all": 39.69
  },
  "74": {
    "active": 18.98,
    "all": 39.69
  },
  "75": {
    "active": 18.98,
    "all": 39.69
  },
  "76": {
    "active": 18.98,
    "all": 39.69
  },
  "77": {
    "active": 18.98,
    "all": 39.69
  },
  "78": {
    "active": 18.98,
    "all": 39.69
  },
  "79": {
    "active": 18.98,
    "all": 39.69
  },
  "80": {
    "active": 18.98,
    "all": 39.69
  },
  "81": {
    "active": 18.98,
    "all": 39.69
  },
  "82": {
    "active": 18.98,
    "all": 39.69
  },
  "83": {
    "active": 18.98,
    "all": 39.69
  },
  "84": {
    "active": 18.98,
    "all": 39.69
  },
  "85": {
    "active": 18.98,
    "all": 39.69
  },
  "86": {
    "active": 18.98,
    "all": 39.69
  },
  "87": {
    "active": 18.98,
    "all": 39.69
  },
  "88": {
    "active": 18.98,
    "all": 39.69
  },
  "89": {
    "active": 18.98,
    "all": 39.69
  },
  "90": {
    "active": 18.98,
    "all": 39.69
  },
  "91": {
    "active": 18.98,
    "all": 39.69
  },
  "92": {
    "active": 18.98,
    "all": 39.69
  },
  "93": {
    "active": 18.98,
    "all": 39.69
  },
  "94": {
    "active": 18.98,
    "all": 39.69
  },
  "95": {
    "active": 18.98,
    "all": 39.69
  },
  "2A": {
    "active": 18.98,
    "all": 39.69
  },
  "2B": {
    "active": 18.98,
    "all": 39.69
  }
}
